Division,WeightClassKg,Place,Name,Team,BodyweightKg,Best3SquatKg,Best3BenchKg,Best3DeadliftKg,TotalKg,Equipment,Event,Sex,BirthDate
Boys,51.71,1,Carmine Benavides,Texas City,50.85,129.27,86.18,129.27,344.73,Single-ply,SBD,M,
Boys,51.71,2,Nicholas Ramos,Pearland Dawson,51.71,90.72,65.77,102.06,258.55,Single-ply,SBD,M,
Boys,59.87,1,Tristin Corn,Texas City,59.78,142.88,79.38,142.88,365.14,Single-ply,SBD,M,
Boys,67.13,1,Mehkyi Carman,Pearland Dawson,67.13,170.1,97.52,156.49,424.11,Single-ply,SBD,M,
Boys,67.13,2,Vincent Mai,Pearland Dawson,67.13,113.4,56.7,129.27,299.37,Single-ply,SBD,M,
Boys,74.84,1,Nick Devasier,Texas City,74.53,226.8,111.13,183.7,521.63,Single-ply,SBD,M,
Boys,74.84,2,Diego Battles,Texas City,68.4,138.35,90.72,151.95,381.02,Single-ply,SBD,M,
Boys,74.84,3,Jeremy Morkovsky,Pearland,74.84,127.01,77.11,151.95,356.07,Single-ply,SBD,M,
Boys,82.1,1,Zayne Shepherd,Texas City,80.01,222.26,129.27,204.12,555.65,Single-ply,SBD,M,
Boys,82.1,2,Brent Najera,Pearland,82.1,183.7,108.86,213.19,505.76,Single-ply,SBD,M,
Boys,82.1,3,Roman Lopez,Texas City,82.1,204.12,102.06,183.7,489.88,Single-ply,SBD,M,
Boys,82.1,4,Hakeem Shitta-Bey,Pearland Dawson,82.1,149.69,120.2,197.31,467.2,Single-ply,SBD,M,
Boys,82.1,5,Brendan Herrera,Pearland,82.1,167.83,106.59,181.44,455.86,Single-ply,SBD,M,
Boys,82.1,6,Hudson Windsor,Pearland Dawson,82.1,174.63,104.33,151.95,430.91,Single-ply,SBD,M,
Boys,89.81,1,Jonathan Nation,Pearland Dawson,89.81,238.14,124.74,242.67,605.55,Single-ply,SBD,M,
Boys,89.81,2,Jamal Gray,Texas City,87.54,242.67,142.88,197.31,582.87,Single-ply,SBD,M,
Boys,89.81,3,Reese Lehmann,Pearland Dawson,89.81,192.78,102.06,197.31,492.15,Single-ply,SBD,M,
Boys,89.81,4,Kie Cicherski,Pearland,89.81,142.88,97.52,206.38,446.79,Single-ply,SBD,M,
Boys,99.79,1,Tony Teeples,Texas City,97.89,226.8,136.08,226.8,589.67,Single-ply,SBD,M,
Boys,99.79,2,Erik Sandoval,Texas City,95.48,249.48,142.88,192.78,585.13,Single-ply,SBD,M,
Boys,99.79,3,James Shanks,Pearland,99.79,174.63,122.47,210.92,508.02,Single-ply,SBD,M,
Boys,99.79,4,Dylan Nicks,Pearland Dawson,99.79,199.58,106.59,183.7,489.88,Single-ply,SBD,M,
Boys,99.79,5,Alboury Ndao,Pearland Dawson,99.79,174.63,74.84,183.7,433.18,Single-ply,SBD,M,
Boys,99.79,6,Ray Soliz,Texas City,99.61,158.76,95.25,165.56,419.57,Single-ply,SBD,M,
Boys,109.77,1,Nathan Guerra,Texas City,101.6,240.4,124.74,185.97,551.11,Single-ply,SBD,M,
Boys,109.77,2,Leirone Ramsey,Pearland,109.77,199.58,111.13,192.78,503.49,Single-ply,SBD,M,
Boys,124.74,1,Luis Morales,Pearland,124.74,247.21,127.01,249.48,623.69,Single-ply,SBD,M,
Boys,124.74,2,Aiden Demmon,Pearland,124.74,204.12,113.4,251.74,569.26,Single-ply,SBD,M,
Boys,124.74,3,Damon Stevens,Texas City,114.85,215.46,133.81,183.7,532.97,Single-ply,SBD,M,
Boys,124.74,4,Ian Cortez,Texas City,124.28,208.65,122.47,185.97,517.1,Single-ply,SBD,M,
Boys,139.71,1,David Escobedo,Pearland Dawson,139.71,219.99,129.27,172.37,521.63,Single-ply,SBD,M,
Boys,139.71,2,Christian Argo,Pearland,139.71,195.04,124.74,192.78,512.56,Single-ply,SBD,M,
Boys,139.71+,1,Anthony Reyes,Pearland,140.61,249.48,131.54,231.33,612.35,Single-ply,SBD,M,
Boys,139.71+,2,Clint Fogie,Pearland Dawson,140.61,226.8,106.59,195.04,528.44,Single-ply,SBD,M,
Boys,139.71+,3,Tyler Jones,Texas City,148.32,165.56,113.4,174.63,453.59,Single-ply,SBD,M,
Boys,139.71+,DQ,Malcom Bruce,Pearland,140.61,226.8,,,,Single-ply,SBD,M,
