Division,WeightClassKg,Place,Name,Team,BodyweightKg,Best3SquatKg,Best3BenchKg,Best3DeadliftKg,TotalKg,Equipment,Event,Sex
Boys,51.71,1,Rodney Barnes,Everman,49.71,129.27,74.84,136.08,340.19,Single-ply,SBD,M
Boys,51.71,2,Alex Samano,Decatur,51.35,122.47,52.16,136.08,310.71,Single-ply,SBD,M
Boys,51.71,3,Jason Nguyen,Oakridge School,49.21,92.99,58.97,115.67,267.62,Single-ply,SBD,M
Boys,51.71,4,Sahir Alibhai,Oakridge School,45.59,70.31,43.09,102.06,215.46,Single-ply,SBD,M
Boys,59.87,1,Ashton Williams,Everman,55.84,154.22,88.45,190.51,433.18,Single-ply,SBD,M
Boys,55.79,2,Sager Patel,Oakridge School,54.98,97.52,70.31,140.61,308.44,Single-ply,SBD,M
Boys,55.79,3,Alejandro Cosio,Fort Worth North Side,52.71,102.06,52.16,108.86,263.08,Single-ply,SBD,M
Boys,55.79,4,Luke Thomas,Decatur,53.84,83.91,56.7,111.13,251.74,Single-ply,SBD,M
Boys,55.79,5,Jesus Gam,Decatur,55.7,90.72,54.43,83.91,229.06,Single-ply,SBD,M
Boys,59.87,1,Roque Rivas,Bowie,59.69,158.76,95.25,167.83,421.84,Single-ply,SBD,M
Boys,59.87,2,Kameron Miles,Hurst Bell,59.74,136.08,86.18,154.22,376.48,Single-ply,SBD,M
Boys,67.13,3,Trey Sowell,Oakridge School,59.92,122.47,74.84,136.08,333.39,Single-ply,SBD,M
Boys,59.87,4,Andrew Gonzales,Waco University,56.06,102.06,63.5,102.06,267.62,Single-ply,SBD,M
Boys,67.13,1,Aaron Pomerantz,Lewisville Marcus,66.68,219.99,156.49,213.19,589.67,Single-ply,SBD,M
Boys,74.84,2,Essix Lightfoot,Everman,67.27,213.19,111.13,204.12,528.44,Single-ply,SBD,M
Boys,67.13,3,Antwan Coleman,Waco University,64.95,195.04,113.4,190.51,498.95,Single-ply,SBD,M
Boys,67.13,4,Kenneth Stafford,Everman,66.59,181.44,97.52,204.12,483.08,Single-ply,SBD,M
Boys,67.13,5,Tanner Tomlin,Bowie,63,170.1,99.79,174.63,444.52,Single-ply,SBD,M
Boys,67.13,6,Brandon Johnson,Everman,63.55,158.76,97.52,179.17,435.45,Single-ply,SBD,M
Boys,67.13,7,Jeffery Gage,Keller Timber Creek,64.09,138.35,92.99,181.44,412.77,Single-ply,SBD,M
Boys,67.13,8,Eric Rosales,Carrollton Turner,66.86,142.88,81.65,183.7,408.23,Single-ply,SBD,M
Boys,67.13,9,Raul Rodriguez,Hurst Bell,60.51,161.03,97.52,147.42,405.97,Single-ply,SBD,M
Boys,67.13,10,Joan Revilla,Everman,65.95,151.95,79.38,170.1,401.43,Single-ply,SBD,M
Boys,67.13,11,Dylan Hooper,Oakridge School,66.04,149.69,81.65,165.56,396.89,Single-ply,SBD,M
Boys,67.13,12,Joseph Calderon,Keller Timber Creek,67.09,142.88,95.25,158.76,396.89,Single-ply,SBD,M
Boys,67.13,13,Marcos Morales,Decatur,64.55,136.08,92.99,158.76,387.82,Single-ply,SBD,M
Boys,67.13,14,Blake Echols,Oakridge School,65.45,136.08,86.18,163.29,385.55,Single-ply,SBD,M
Boys,67.13,15,Brandon Durousseaux,Everman,60.87,136.08,102.06,142.88,381.02,Single-ply,SBD,M
Boys,67.13,16,Chris Zapata,Carrollton Turner,66.22,127.01,81.65,163.29,371.95,Single-ply,SBD,M
Boys,67.13,17,Alwin Crawford,Northwest Nelson,62.46,136.08,83.91,136.08,356.07,Single-ply,SBD,M
Boys,67.13,18,Cory Heiss,Keller Timber Creek,64.86,136.08,72.57,138.35,347,Single-ply,SBD,M
Boys,67.13,19,Nick Kennedy,Oakridge School,64.05,120.2,72.57,122.47,315.25,Single-ply,SBD,M
Boys,67.13,20,Mario Corona,Gainesville,64.77,122.47,61.23,108.86,292.57,Single-ply,SBD,M
Boys,67.13,21,Wade Nicolas,Dallas Highland Park,62.14,97.52,52.16,127.01,276.69,Single-ply,SBD,M
Boys,67.13,22,Fernando Rodriguez,Fort Worth North Side,63.28,90.72,58.97,122.47,272.16,Single-ply,SBD,M
Boys,67.13,23,Tucker Schuring,Decatur,61.73,102.06,68.04,99.79,269.89,Single-ply,SBD,M
Boys,67.13,24,Jeremy Mackenrodt,Decatur,61.55,90.72,61.23,115.67,267.62,Single-ply,SBD,M
Boys,67.13,25,Nelson Gongora,Everman,66.22,,88.45,151.95,240.4,Single-ply,BD,M
Boys,74.84,1,Jarod Hill,Everman,72.03,217.72,117.93,208.65,544.31,Single-ply,SBD,M
Boys,74.84,2,Chanse Alexander,Oakridge School,73.71,192.78,104.33,215.46,512.56,Single-ply,SBD,M
Boys,74.84,3,Chris Vega,Fort Worth North Side,70.08,165.56,113.4,183.7,462.66,Single-ply,SBD,M
Boys,74.84,4,Chad Layton,Decatur,70.94,158.76,111.13,179.17,449.06,Single-ply,SBD,M
Boys,82.1,5,Josue Hernandez,Fort Worth North Side,74.98,161.03,92.99,192.78,446.79,Single-ply,SBD,M
Boys,74.84,6,Taylor Daniel #1,Hurst Bell,72.39,161.03,102.06,176.9,439.98,Single-ply,SBD,M
Boys,74.84,7,David Brown #12,Hurst Bell,73.57,145.15,124.74,170.1,439.98,Single-ply,SBD,M
Boys,74.84,8,Charles Badger,Everman,74.34,142.88,92.99,181.44,417.3,Single-ply,SBD,M
Boys,74.84,9,Grant Fudge,Keller Timber Creek,69.4,149.69,92.99,151.95,394.63,Single-ply,SBD,M
Boys,82.1,10,Darrel Pinkston,Everman,75.07,156.49,81.65,151.95,390.09,Single-ply,SBD,M
Boys,74.84,11,Bill Hall,Lewisville Marcus,68.36,142.88,102.06,136.08,381.02,Single-ply,SBD,M
Boys,74.84,12,Trey Willis,Oakridge School,72.85,136.08,86.18,158.76,381.02,Single-ply,SBD,M
Boys,74.84,13,Jailen Garrett,Northwest Nelson,74.48,136.08,95.25,149.69,381.02,Single-ply,SBD,M
Boys,74.84,14,Marvin Owens,Northwest Nelson,74.71,136.08,88.45,147.42,371.95,Single-ply,SBD,M
Boys,74.84,15,Spencer Majors,Waco University,74.03,120.2,90.72,158.76,369.68,Single-ply,SBD,M
Boys,74.84,16,Jared Link,Dallas Highland Park,69.13,115.67,68.04,145.15,328.85,Single-ply,SBD,M
Boys,74.84,17,Cade Wooten,Oakridge School,69.63,124.74,63.5,129.27,317.51,Single-ply,SBD,M
Boys,74.84,18,Demarcus Baisy,Waco University,68.31,108.86,83.91,113.4,306.17,Single-ply,SBD,M
Boys,74.84,19,Edward Jacquez,Waco University,70.72,104.33,77.11,124.74,306.17,Single-ply,SBD,M
Boys,74.84,20,Matthew Minto-Sparks,Dallas Highland Park,72.21,104.33,61.23,124.74,290.3,Single-ply,SBD,M
Boys,74.84,21,Andrew White,Oakridge School,74.71,95.25,61.23,117.93,274.42,Single-ply,SBD,M
Boys,74.84,22,Lee Gaines,Oakridge School,71.12,90.72,45.36,120.2,256.28,Single-ply,SBD,M
Boys,82.1,1,Jesus Padilla,Fort Worth North Side,76.07,185.97,111.13,185.97,483.08,Single-ply,SBD,M
Boys,82.1,2,Cole Feigl,Dallas Highland Park,78.61,174.63,108.86,199.58,483.08,Single-ply,SBD,M
Boys,82.1,3,Tanner Houghton,Dallas Highland Park,82.05,183.7,117.93,165.56,467.2,Single-ply,SBD,M
Boys,89.81,4,Joel Kabongo,Northwest Nelson,82.33,183.7,111.13,170.1,464.93,Single-ply,SBD,M
Boys,82.1,5,Michael Sagako,Hurst Bell,75.43,154.22,106.59,195.04,455.86,Single-ply,SBD,M
Boys,82.1,6,Cardrea Cauley,Everman,81.47,170.1,108.86,163.29,442.25,Single-ply,SBD,M
Boys,82.1,7,Bailey Gregory,Hurst Bell,76.7,167.83,106.59,163.29,437.72,Single-ply,SBD,M
Boys,82.1,8,Remy Kell,Dallas Highland Park,77.16,149.69,108.86,154.22,412.77,Single-ply,SBD,M
Boys,82.1,9,Micah Bires,Dallas Highland Park,76.02,158.76,79.38,158.76,396.89,Single-ply,SBD,M
Boys,82.1,10,John Dinh,Northwest Nelson,77.34,140.61,92.99,151.95,385.55,Single-ply,SBD,M
Boys,82.1,11,Rudy Arita,Carrollton Turner,78.7,129.27,88.45,165.56,383.29,Single-ply,SBD,M
Boys,82.1,12,Robin Agir,Oakridge School,81.47,138.35,77.11,151.95,367.41,Single-ply,SBD,M
Boys,82.1,13,Jeffrey Morua,Waco University,78.29,122.47,79.38,136.08,337.93,Single-ply,SBD,M
Boys,82.1,14,Austin Schaffer,Oakridge School,80.24,113.4,68.04,151.95,333.39,Single-ply,SBD,M
Boys,82.1,15,Edgar Ramirez,Gainesville,75.3,122.47,74.84,133.81,331.12,Single-ply,SBD,M
Boys,82.1,16,Khaemon Edwards,Everman,75.39,102.06,83.91,124.74,310.71,Single-ply,SBD,M
Boys,82.1,17,Brendan Pando,Gainesville,77.11,83.91,70.31,127.01,281.23,Single-ply,SBD,M
Boys,89.81,1,True Miller,Bowie,87.54,249.48,122.47,231.33,603.28,Single-ply,SBD,M
Boys,89.81,2,Lucas D'Agostino,Oakridge School,84.23,217.72,129.27,229.06,576.06,Single-ply,SBD,M
Boys,89.81,3,Elliott Souter,Hurst Bell,87.36,208.65,122.47,226.8,557.92,Single-ply,SBD,M
Boys,99.79,4,Liam Destefano,Hurst Bell,89.9,190.51,131.54,204.12,526.17,Single-ply,SBD,M
Boys,89.81,5,Jordan Ortiz,Northwest Nelson,82.51,197.31,115.67,181.44,494.42,Single-ply,SBD,M
Boys,89.81,6,David Portillo,Carrollton Turner,88.27,167.83,122.47,201.85,492.15,Single-ply,SBD,M
Boys,89.81,7,Chris White,Gainesville,85.37,161.03,127.01,163.29,451.32,Single-ply,SBD,M
Boys,89.81,8,Jonathan Ibanez,Everman,84.69,170.1,90.72,174.63,435.45,Single-ply,SBD,M
Boys,89.81,9,Brooks Oden,Dallas Highland Park,88.77,156.49,102.06,163.29,421.84,Single-ply,SBD,M
Boys,89.81,10,Barron Wortham,Oakridge School,87.54,147.42,72.57,185.97,405.97,Single-ply,SBD,M
Boys,89.81,11,Noor Wafayee,Oakridge School,88.04,124.74,90.72,158.76,374.21,Single-ply,SBD,M
Boys,89.81,12,Trevor Goree,Keller Timber Creek,87.82,108.86,88.45,140.61,337.93,Single-ply,SBD,M
Boys,89.81,13,Quinn Happold,Keller Timber Creek,86.36,99.79,74.84,136.08,310.71,Single-ply,SBD,M
Boys,89.81,14,Nick Tran,Oakridge School,88.63,58.97,52.16,104.33,215.46,Single-ply,SBD,M
Boys,89.81,DQ,Amon Lindsay,Keller Timber Creek,88.04,163.29,106.59,,,Single-ply,SBD,M
Boys,89.81,DQ,Hagen Davis,Chico,87.5,124.74,,149.69,,Single-ply,SBD,M
Boys,99.79,1,Marcus Stafford,Everman,91.9,210.92,124.74,219.99,555.65,Single-ply,SBD,M
Boys,99.79,2,Karim Behloul,Hurst Bell,98.7,210.92,117.93,226.8,555.65,Single-ply,SBD,M
Boys,99.79,3,Brett Bicknell,Oakridge School,94.76,208.65,124.74,201.85,535.24,Single-ply,SBD,M
Boys,99.79,4,Kyle Ko,Lewisville Marcus,92.26,204.12,136.08,181.44,521.63,Single-ply,SBD,M
Boys,109.77,5,Christian Hernandez,Everman,100.02,183.7,124.74,181.44,489.88,Single-ply,SBD,M
Boys,99.79,6,Daniel Ambriz,Everman,99.25,192.78,102.06,176.9,471.74,Single-ply,SBD,M
Boys,99.79,7,Matthew Riggs,Dallas Highland Park,93.44,183.7,113.4,172.37,469.47,Single-ply,SBD,M
Boys,99.79,8,Jared Boswell,Gainesville,98.66,183.7,97.52,183.7,464.93,Single-ply,SBD,M
Boys,99.79,9,Bobby Jones,Northwest Nelson,92.85,181.44,106.59,170.1,458.13,Single-ply,SBD,M
Boys,99.79,10,Chris Sandjo,Keller Timber Creek,93.12,156.49,111.13,181.44,449.06,Single-ply,SBD,M
Boys,99.79,11,Gil Horn,Dallas Highland Park,98.47,176.9,102.06,165.56,444.52,Single-ply,SBD,M
Boys,99.79,12,Danny Gouskos,Dallas Highland Park,92.17,145.15,90.72,158.76,394.63,Single-ply,SBD,M
Boys,99.79,13,George Roam,Everman,99.29,147.42,95.25,142.88,385.55,Single-ply,SBD,M
Boys,99.79,14,Ian Kirkman,Keller Timber Creek,94.62,115.67,79.38,156.49,351.53,Single-ply,SBD,M
Boys,99.79,15,Joseph Romans,Gainesville,93.26,127.01,83.91,136.08,347,Single-ply,SBD,M
Boys,99.79,16,Caz Orr,Dallas Highland Park,95.35,172.37,,165.56,337.93,Single-ply,SD,M
Boys,99.79,17,Jonathan Casillas,Keller Timber Creek,94.21,108.86,72.57,129.27,310.71,Single-ply,SBD,M
Boys,109.77,1,Jack Ceverha,Dallas Highland Park,105.28,219.99,138.35,226.8,585.13,Single-ply,SBD,M
Boys,109.77,2,Pj Caparelli,Bowie,105.28,233.6,120.2,213.19,566.99,Single-ply,SBD,M
Boys,109.77,3,Alex Canales,Hurst Bell,105.51,208.65,149.69,197.31,555.65,Single-ply,SBD,M
Boys,109.77,4,Tj May,Bowie,108.64,208.65,131.54,190.51,530.7,Single-ply,SBD,M
Boys,109.77,5,Skyler Reneau,Northwest Nelson,105.1,195.04,131.54,199.58,526.17,Single-ply,SBD,M
Boys,109.77,6,Andrew Clyde,Dallas Highland Park,101.2,183.7,136.08,181.44,501.22,Single-ply,SBD,M
Boys,109.77,7,Graham Cowdrey,Decatur,107.64,190.51,115.67,174.63,480.81,Single-ply,SBD,M
Boys,109.77,8,Tony Richards,Dallas Highland Park,105.82,197.31,120.2,151.95,469.47,Single-ply,SBD,M
Boys,109.77,9,Chase Dennis,Keller Timber Creek,102.42,156.49,113.4,174.63,444.52,Single-ply,SBD,M
Boys,109.77,10,Jonathan Delvalle,Carrollton Turner,100.88,165.56,83.91,165.56,415.04,Single-ply,SBD,M
Boys,109.77,11,Kenny Lizama,Waco University,108.5,122.47,79.38,142.88,344.73,Single-ply,SBD,M
Boys,109.77,12,Aaron Kirkman,Keller Timber Creek,108.45,106.59,83.91,149.69,340.19,Single-ply,SBD,M
Boys,124.74,13,Grant Johnson,Oakridge School,110,204.12,108.86,,312.98,Single-ply,SB,M
Boys,109.77,DQ,Domineek Davis,Everman,102.83,174.63,,,,Single-ply,SB,M
Boys,124.74,1,Anthony Zapata,Everman,118.57,226.8,138.35,226.8,591.94,Single-ply,SBD,M
Boys,124.74,2,Ben Liberto,Lewisville Marcus,110.81,226.8,136.08,226.8,589.67,Single-ply,SBD,M
Boys,124.74,3,Thomas Turner,Waco University,123.38,219.99,136.08,183.7,539.77,Single-ply,SBD,M
Boys,124.74,4,Gabriel Vega,Waco University,118.02,219.99,90.72,188.24,498.95,Single-ply,SBD,M
Boys,124.74,5,Connor O'Neil,Northwest Nelson,113.9,181.44,115.67,185.97,483.08,Single-ply,SBD,M
Boys,124.74,6,Clint Smith #2,Hurst Bell,112.94,163.29,111.13,197.31,471.74,Single-ply,SBD,M
Boys,124.74,7,Tyler Gallagos,Lewisville Marcus,117.84,181.44,120.2,156.49,458.13,Single-ply,SBD,M
Boys,124.74,8,Tyler Melton,Chico,114.58,167.83,111.13,172.37,451.32,Single-ply,SBD,M
Boys,124.74,9,Manny Rodriguez,Gainesville,111.22,179.17,102.06,156.49,437.72,Single-ply,SBD,M
Boys,124.74,10,Eric Booker,Everman,114.58,140.61,97.52,117.93,356.07,Single-ply,SBD,M
Boys,124.74,DQ,Clayton Woods,Dallas Highland Park,116.94,172.37,,,,Single-ply,SBD,M
Boys,124.74+,1,Luke Young,Keller,132.18,294.84,188.24,260.82,743.89,Single-ply,SBD,M
Boys,124.74+,2,Ben Hughes,Waco University,145.56,285.76,176.9,278.96,741.62,Single-ply,SBD,M
Boys,124.74+,3,Michael Castle,Lewisville Marcus,138.66,272.16,192.78,226.8,691.73,Single-ply,SBD,M
Boys,124.74+,4,Kevin Blessing,Lewisville Marcus,142.97,247.21,174.63,247.21,669.05,Single-ply,SBD,M
Boys,124.74+,5,Michael Bonilla,Waco University,136.4,235.87,129.27,215.46,580.6,Single-ply,SBD,M
Boys,124.74+,6,Joey Stephens,Everman,136.67,215.46,124.74,195.04,535.24,Single-ply,SBD,M
Boys,124.74+,7,Jimmy Schuetz,Chico,133.45,192.78,138.35,201.85,532.97,Single-ply,SBD,M
Boys,124.74+,8,Anders Huizenga,Northwest Nelson,135.58,174.63,147.42,201.85,523.9,Single-ply,SBD,M
Boys,124.74+,9,Jacob Hartsell,Decatur,126.55,201.85,122.47,197.31,521.63,Single-ply,SBD,M
Boys,124.74+,10,Duke Smith,Northwest Nelson,132.4,192.78,115.67,179.17,487.61,Single-ply,SBD,M
Boys,124.74+,11,John Witt,Everman,131.5,181.44,122.47,181.44,485.34,Single-ply,SBD,M
Boys,124.74+,DQ,Greg Schnieder,Gainesville,147.46,,,,,Single-ply,SBD,M
Boys,124.74+,DQ,Eric Deleon,Gainesville,127.46,,,,,Single-ply,SBD,M
Boys,124.74+,DQ,Malik Martin,Lewisville Marcus,168.1,,,,,Single-ply,SBD,M
