Division,WeightClassKg,Place,Name,Team,BodyweightKg,Best3SquatKg,Best3BenchKg,Best3DeadliftKg,TotalKg,Equipment,Event,Sex,BirthDate
Boys,51.71,1,Jacob Guerrero,Yorktown,51.26,145.15,90.72,147.42,383.29,Single-ply,SBD,M,
Boys,51.71,2,Tye Warncke,East Bernard,50.8,111.13,47.63,115.67,274.42,Single-ply,SBD,M,
Boys,51.71,3,Adam Mock,Sealy,50.8,102.06,65.77,104.33,272.16,Single-ply,SBD,M,
Boys,51.71,4,Blake Zalobny,Caldwell,51.71,86.18,45.36,115.67,247.21,Single-ply,SBD,M,
Boys,51.71,5,Hardy Hay,Weimar,51.71,90.72,47.63,106.59,244.94,Single-ply,SBD,M,
Boys,51.71,6,Craig Lanier,East Bernard,46.27,79.38,45.36,74.84,199.58,Single-ply,SBD,M,
Boys,55.79,1,Drayton Mazac,Sealy,54.88,136.08,72.57,151.95,360.61,Single-ply,SBD,M,
Boys,55.79,2,Cayde Novosad,Sealy,53.52,131.54,68.04,133.81,333.39,Single-ply,SBD,M,
Boys,55.79,3,Rolando Robles,East Bernard,55.34,117.93,79.38,124.74,322.05,Single-ply,SBD,M,
Boys,59.87,1,Cleo Leal,Kenedy,59.42,165.56,88.45,147.42,401.43,Single-ply,SBD,M,
Boys,59.87,2,Cody Krupala,La Grange,57.15,163.29,86.18,136.08,385.55,Single-ply,SBD,M,
Boys,59.87,3,Jonathan Guerrero,Yorktown,58.97,142.88,83.91,131.54,358.34,Single-ply,SBD,M,
Boys,59.87,4,Illirian Haxhijaj,East Bernard,59.42,142.88,65.77,149.69,358.34,Single-ply,SBD,M,
Boys,59.87,5,Adrian Cloud,Sealy,59.87,124.74,90.72,120.2,335.66,Single-ply,SBD,M,
Boys,59.87,6,Max Wickens,Sealy,58.51,127.01,77.11,127.01,331.12,Single-ply,SBD,M,
Boys,59.87,DQ,Braide Nelson,Caldwell,59.42,,56.7,,,Single-ply,SBD,M,
Boys,67.13,1,Kaleb Rivera,East Bernard,65.32,201.85,124.74,201.85,528.44,Single-ply,SBD,M,
Boys,67.13,2,Jeremiah Metzgar,Sealy,65.77,176.9,113.4,183.7,474,Single-ply,SBD,M,
Boys,67.13,3,Ivan Granados,Caldwell,62.14,185.97,88.45,190.51,464.93,Single-ply,SBD,M,
Boys,67.13,4,Bradley Garbs,Sealy,64.41,158.76,104.33,170.1,433.18,Single-ply,SBD,M,
Boys,67.13,5,Morris Brown,Kenedy,62.14,172.37,88.45,170.1,430.91,Single-ply,SBD,M,
Boys,67.13,6,Devon Johnson,La Grange,64.86,163.29,106.59,161.03,430.91,Single-ply,SBD,M,
Boys,67.13,7,Dakota Ford,Weimar,63.05,129.27,83.91,161.03,374.21,Single-ply,SBD,M,
Boys,67.13,8,Moises Perdomo,Kenedy,65.77,129.27,83.91,151.95,365.14,Single-ply,SBD,M,
Boys,67.13,DQ,Daniel Pena,Kenedy,67.13,183.7,,,,Single-ply,SBD,M,
Boys,74.84,1,Caleb Barrientez,Kenedy,74.84,192.78,102.06,192.78,487.61,Single-ply,SBD,M,
Boys,74.84,2,Roberto Casas,Sealy,70.76,170.1,111.13,174.63,455.86,Single-ply,SBD,M,
Boys,74.84,3,Jackson Morrow,East Bernard,72.57,181.44,88.45,183.7,453.59,Single-ply,SBD,M,
Boys,74.84,4,Waylon Schimcek,Weimar,73.48,165.56,104.33,172.37,442.25,Single-ply,SBD,M,
Boys,74.84,5,Jace Aly,Caldwell,68.95,158.76,102.06,176.9,437.72,Single-ply,SBD,M,
Boys,74.84,6,Alexis Sosa,Navasota,71.67,138.35,97.52,138.35,374.21,Single-ply,SBD,M,
Boys,74.84,7,Darrell Gibson,Kenedy,68.49,133.81,83.91,149.69,367.41,Single-ply,SBD,M,
Boys,74.84,8,Kaden Leonard,Navasota,71.21,102.06,61.23,124.74,288.03,Single-ply,SBD,M,
Boys,82.1,1,Blake Jedlicka,East Bernard,79.38,233.6,129.27,229.06,591.94,Single-ply,SBD,M,
Boys,82.1,2,Dj Losak,East Bernard,80.29,226.8,140.61,197.31,564.72,Single-ply,SBD,M,
Boys,82.1,3,Landon Little,La Grange,81.19,170.1,115.67,183.7,469.47,Single-ply,SBD,M,
Boys,82.1,4,Anthony Sierra,Weimar,79.38,176.9,72.57,195.04,444.52,Single-ply,SBD,M,
Boys,82.1,5,Damien Herrera,Yorktown,80.74,183.7,86.18,167.83,437.72,Single-ply,SBD,M,
Boys,82.1,6,Austin Stech,Weimar,77.56,147.42,102.06,163.29,412.77,Single-ply,SBD,M,
Boys,82.1,7,Brian Freeman,Yorktown,81.65,158.76,86.18,156.49,401.43,Single-ply,SBD,M,
Boys,82.1,8,Rylan Rau,Kenedy,80.29,158.76,70.31,158.76,387.82,Single-ply,SBD,M,
Boys,82.1,9,Alex Lopez #11,Navasota,82.1,142.88,83.91,117.93,344.73,Single-ply,SBD,M,
Boys,82.1,10,Ely Glisson,La Grange,81.65,124.74,74.84,140.61,340.19,Single-ply,SBD,M,
Boys,89.81,1,J Galvan,East Bernard,83.91,258.55,163.29,235.87,657.71,Single-ply,SBD,M,
Boys,89.81,2,Dylan Farias,Kenedy,88.45,235.87,142.88,215.46,594.21,Single-ply,SBD,M,
Boys,89.81,3,Korbyn Hudgins,East Bernard,89.36,215.46,140.61,201.85,557.92,Single-ply,SBD,M,
Boys,89.81,4,Lance Heimann,East Bernard,88.45,213.19,129.27,199.58,542.04,Single-ply,SBD,M,
Boys,89.81,5,Justin Balcar,Caldwell,86.18,201.85,127.01,185.97,514.83,Single-ply,SBD,M,
Boys,89.81,6,Travis Balcar,Caldwell,85.73,192.78,115.67,192.78,501.22,Single-ply,SBD,M,
Boys,89.81,7,Calvin Lopez,Kenedy,84.82,195.04,120.2,158.76,474,Single-ply,SBD,M,
Boys,89.81,8,Austin Grooms,La Grange,86.64,161.03,97.52,163.29,421.84,Single-ply,SBD,M,
Boys,89.81,9,Buck Bujnoch,Weimar,83.91,149.69,83.91,176.9,410.5,Single-ply,SBD,M,
Boys,89.81,10,Justin Guerrero,Yorktown,88.45,145.15,81.65,145.15,371.95,Single-ply,SBD,M,
Boys,89.81,11,Alan Diaz,Navasota,88.9,129.27,54.43,115.67,299.37,Single-ply,SBD,M,
Boys,99.79,1,Fernando Vargas,Kenedy,94.8,249.48,136.08,226.8,612.35,Single-ply,SBD,M,
Boys,99.79,2,Ethan Hart,Sealy,95.71,199.58,145.15,215.46,560.19,Single-ply,SBD,M,
Boys,99.79,3,Owen Espinoza,Kenedy,97.07,201.85,149.69,192.78,544.31,Single-ply,SBD,M,
Boys,99.79,4,Eric Torres,Sealy,95.71,195.04,104.33,185.97,485.34,Single-ply,SBD,M,
Boys,99.79,5,Jim Jackson,Caldwell,98.88,181.44,122.47,174.63,478.54,Single-ply,SBD,M,
Boys,99.79,6,Jose Arriaga,Sealy,98.88,195.04,108.86,167.83,471.74,Single-ply,SBD,M,
Boys,99.79,7,Favian Gutierrez,La Grange,99.34,183.7,106.59,181.44,471.74,Single-ply,SBD,M,
Boys,99.79,8,Brennon Freeman,Yorktown,92.08,167.83,99.79,158.76,426.38,Single-ply,SBD,M,
Boys,99.79,9,Adrial Quirino,Navasota,99.34,111.13,70.31,120.2,301.64,Single-ply,SBD,M,
Boys,109.77,1,Hayden Meng,La Grange,105.69,251.74,117.93,242.67,612.35,Single-ply,SBD,M,
Boys,109.77,2,Ethan Pompa,Yorktown,106.59,204.12,113.4,197.31,514.83,Single-ply,SBD,M,
Boys,109.77,3,Connor Ruppert,Yorktown,107.95,145.15,99.79,151.95,396.89,Single-ply,SBD,M,
Boys,109.77,4,Ha'Dadrien Struggs,Navasota,103.87,111.13,83.91,142.88,337.93,Single-ply,SBD,M,
Boys,109.77,DQ,Austin Williams,La Grange,109.77,174.63,,,,Single-ply,SBD,M,
Boys,109.77,DQ,Ryland Reyna,Kenedy,108.41,226.8,,,,Single-ply,SBD,M,
Boys,124.74,1,Cooper Imhoff,La Grange,116.57,226.8,142.88,190.51,560.19,Single-ply,SBD,M,
Boys,124.74,2,Anthony Weikel,La Grange,110.22,217.72,117.93,213.19,548.85,Single-ply,SBD,M,
Boys,124.74,3,Hayden Splawn,La Grange,113.4,195.04,129.27,204.12,528.44,Single-ply,SBD,M,
Boys,124.74,4,Kyle Willingham,Sealy,116.12,181.44,115.67,195.04,492.15,Single-ply,SBD,M,
Boys,124.74,5,Emanuel Gaytan,Weimar,115.67,195.04,83.91,183.7,462.66,Single-ply,SBD,M,
Boys,124.74,DQ,Joseph Luna,Kenedy,115.21,254.01,,,,Single-ply,SBD,M,
Boys,139.71,1,Garrett Tittle,Caldwell,137.89,265.35,181.44,226.8,673.58,Single-ply,SBD,M,
Boys,139.71,2,Robert De Leon,Kenedy,125.19,226.8,188.24,224.53,639.57,Single-ply,SBD,M,
Boys,139.71,3,Orlando Sanchez,La Grange,134.72,244.94,111.13,195.04,551.11,Single-ply,SBD,M,
Boys,139.71,4,Hunter Hall,Yorktown,139.25,226.8,113.4,192.78,532.97,Single-ply,SBD,M,
Boys,139.71,6,Anthony Flores,Navasota,128.37,147.42,88.45,124.74,360.61,Single-ply,SBD,M,
Boys,139.71,7,Dario Luna,Navasota,132.45,124.74,92.99,111.13,328.85,Single-ply,SBD,M,
Boys,139.71+,5,Riley Herrera,Kenedy,140.61,192.78,133.81,192.78,519.36,Single-ply,SBD,M,
