Division,WeightClassKg,Place,Name,Team,BodyweightKg,Best3SquatKg,Best3BenchKg,Best3DeadliftKg,TotalKg,Equipment,Event,Sex,BirthDate
Boys,51.71,1,Damion Gonzales,Lockney,50.67,185.97,104.33,163.29,453.59,Single-ply,SBD,M,
Boys,51.71,2,Collen Prickett,Amarillo Highland Park,50.76,142.88,90.72,133.81,367.41,Single-ply,SBD,M,
Boys,51.71,3,Robert Noriega,Kress,50.48,106.59,70.31,156.49,333.39,Single-ply,SBD,M,
Boys,51.71,4,Benjamin Perez,Amarillo Highland Park,51.39,97.52,70.31,111.13,278.96,Single-ply,SBD,M,
Boys,51.71,5,Xavier Ellis,Kress,45.31,95.25,61.23,92.99,249.48,Single-ply,SBD,M,
Boys,51.71,DQ,Jose Soliz,Whiteface,44.5,61.23,83.91,,,Single-ply,SBD,M,
Boys,55.79,1,Rj Lopez,Levelland,55.38,140.61,88.45,154.22,383.29,Single-ply,SBD,M,
Boys,55.79,2,Michael Bautista,Friona,55.61,142.88,83.91,151.95,378.75,Single-ply,SBD,M,
Boys,55.79,3,Fabian Viernes,Bovina,55.47,127.01,83.91,140.61,351.53,Single-ply,SBD,M,
Boys,55.79,4,Seger Maples,Amarillo Highland Park,55.43,102.06,88.45,127.01,317.51,Single-ply,SBD,M,
Boys,55.79,5,Ceasar Amaya,Bovina,54.2,122.47,65.77,127.01,315.25,Single-ply,SBD,M,
Boys,55.79,6,Danny Pena,San Angelo TLC Academy,54.79,92.99,95.25,120.2,308.44,Single-ply,SBD,M,
Boys,55.79,7,Campbell Bargas,Amarillo Highland Park,52.39,111.13,65.77,124.74,301.64,Single-ply,SBD,M,
Boys,55.79,8,Davian Castilleja,Kress,51.85,99.79,61.23,115.67,276.69,Single-ply,SBD,M,
Boys,55.79,9,Zaden Carrillo,Levelland,55.57,81.65,65.77,117.93,265.35,Single-ply,SBD,M,
Boys,55.79,10,Riley Rodriguez,Whiteface,55.79,86.18,52.16,115.67,254.01,Single-ply,SBD,M,
Boys,55.79,11,Eric Estrada,Friona,55.61,92.99,49.9,92.99,235.87,Single-ply,SBD,M,
Boys,55.79,DQ,Gavin Baker,Whiteface,54.34,77.11,,,,Single-ply,SBD,M,
Boys,59.87,1,Mario Bautista,Friona,59.74,165.56,104.33,170.1,439.98,Single-ply,SBD,M,
Boys,59.87,2,Ethan Martinez,Wolfforth Frenship,59.56,163.29,102.06,163.29,428.64,Single-ply,SBD,M,
Boys,59.87,3,Bryan Tarango,Dimmitt,58.56,136.08,72.57,163.29,371.95,Single-ply,SBD,M,
Boys,59.87,4,Jovany Salazar,Bovina,59.01,122.47,77.11,149.69,349.27,Single-ply,SBD,M,
Boys,59.87,5,Jorge Garcia,Friona,56.52,136.08,77.11,133.81,347,Single-ply,SBD,M,
Boys,59.87,6,Dominic Galvan,Amarillo Highland Park,59.87,127.01,83.91,136.08,347,Single-ply,SBD,M,
Boys,59.87,7,Lizandro Rocha,Dimmitt,59.01,111.13,72.57,138.35,322.05,Single-ply,SBD,M,
Boys,59.87,8,Xayvion Gonzalez,Dimmitt,58.79,117.93,72.57,124.74,315.25,Single-ply,SBD,M,
Boys,59.87,9,Gabriel Ramos,Friona,55.93,102.06,61.23,108.86,272.16,Single-ply,SBD,M,
Boys,59.87,10,Chris Olguin,Whiteface,55.93,95.25,56.7,117.93,269.89,Single-ply,SBD,M,
Boys,59.87,11,Diego Cedillo,Kress,58.88,83.91,63.5,108.86,256.28,Single-ply,SBD,M,
Boys,67.13,1,Angel Camero,Levelland,66.95,167.83,97.52,197.31,462.66,Single-ply,SBD,M,
Boys,67.13,2,Gabriel Reyes,Dimmitt,62.51,149.69,99.79,192.78,442.25,Single-ply,SBD,M,
Boys,67.13,3,Vincent Yarbrough,Tulia,62.37,149.69,95.25,165.56,410.5,Single-ply,SBD,M,
Boys,67.13,4,Michael Garza,Wolfforth Frenship,66.81,129.27,104.33,161.03,394.63,Single-ply,SBD,M,
Boys,67.13,5,Jorge Bo Hernandez,Dimmitt,63.32,138.35,90.72,149.69,378.75,Single-ply,SBD,M,
Boys,67.13,6,Sedric Mirelez,Dimmitt,66.13,133.81,74.84,165.56,374.21,Single-ply,SBD,M,
Boys,67.13,7,Felix Gonzales,Lockney,64.41,140.61,79.38,149.69,369.68,Single-ply,SBD,M,
Boys,67.13,8,Jermaine Stotts,Wolfforth Frenship,62.91,131.54,77.11,154.22,362.87,Single-ply,SBD,M,
Boys,67.13,9,Ivan Garcia,Tulia,66.68,124.74,74.84,149.69,349.27,Single-ply,SBD,M,
Boys,67.13,10,Miguel Lopez,Bovina,60.1,122.47,86.18,136.08,344.73,Single-ply,SBD,M,
Boys,67.13,11,Gage Graves,Lockney,61.78,115.67,70.31,133.81,319.78,Single-ply,SBD,M,
Boys,67.13,12,Tye Bice,Tulia,66.68,115.67,65.77,136.08,317.51,Single-ply,SBD,M,
Boys,67.13,13,Christian Zapata,Kress,64.36,99.79,70.31,145.15,315.25,Single-ply,SBD,M,
Boys,67.13,14,Uriah Two Two,Vega,64.18,127.01,65.77,117.93,310.71,Single-ply,SBD,M,
Boys,67.13,15,Jaxon Heflin,Whiteface,66.36,111.13,63.5,131.54,306.17,Single-ply,SBD,M,
Boys,67.13,16,Jeremiah Rosales,Lockney,62.23,129.27,58.97,106.59,294.84,Single-ply,SBD,M,
Boys,67.13,17,Morris Salas,Lockney,66.13,131.54,79.38,156.49,367.41,Single-ply,SBD,M,
Boys,67.13,18,Devion Ellis,Kress,62.01,102.06,56.7,120.2,278.96,Single-ply,SBD,M,
Boys,67.13,DQ,Aiden Russell,Lubbock Roosevelt,60.74,113.4,,,,Single-ply,SBD,M,
Boys,67.13,DQ,Davonte Baker,Kress,65.32,102.06,,,,Single-ply,SBD,M,
Boys,74.84,1,Sabian Martinez,Dimmitt,73.26,176.9,117.93,176.9,471.74,Single-ply,SBD,M,
Boys,74.84,2,Christian Smith,Levelland,74.84,154.22,102.06,197.31,453.59,Single-ply,SBD,M,
Boys,74.84,3,Feliciano Garcia,Amarillo Highland Park,74.16,165.56,81.65,201.85,449.06,Single-ply,SBD,M,
Boys,74.84,4,Michael Guzman,Kress,71.8,156.49,102.06,188.24,446.79,Single-ply,SBD,M,
Boys,74.84,5,Devon Campbell,Whiteface,74.25,176.9,97.52,172.37,446.79,Single-ply,SBD,M,
Boys,74.84,6,Xuan Garcia,Friona,68.13,151.95,97.52,181.44,430.91,Single-ply,SBD,M,
Boys,74.84,7,Aaron Salinas,Friona,72.76,149.69,88.45,163.29,401.43,Single-ply,SBD,M,
Boys,74.84,8,Tyler Valdez,Levelland,68.27,136.08,90.72,167.83,394.63,Single-ply,SBD,M,
Boys,74.84,9,Diego Garcia,Bovina,70.85,136.08,83.91,174.63,394.63,Single-ply,SBD,M,
Boys,74.84,10,Tyler Campbell,Whiteface,71.67,147.42,79.38,163.29,390.09,Single-ply,SBD,M,
Boys,74.84,11,Isaac Olmos,Friona,70.35,145.15,83.91,151.95,381.02,Single-ply,SBD,M,
Boys,74.84,12,William VanZee,Dimmitt,73.89,138.35,88.45,151.95,378.75,Single-ply,SBD,M,
Boys,74.84,13,Skyler Monroe,Tulia,69.54,129.27,83.91,151.95,365.14,Single-ply,SBD,M,
Boys,74.84,14,Ethan Kauffman,Whiteface,72.3,133.81,79.38,149.69,362.87,Single-ply,SBD,M,
Boys,74.84,15,Royce Rey,Tulia,70.49,113.4,83.91,154.22,351.53,Single-ply,SBD,M,
Boys,74.84,16,Noah Rendon,Whiteface,68.9,113.4,86.18,136.08,335.66,Single-ply,SBD,M,
Boys,74.84,17,Jackson Gibbs,Levelland,68.36,104.33,72.57,145.15,322.05,Single-ply,SBD,M,
Boys,82.1,1,Jose Ticum,Friona,77.97,226.8,129.27,226.8,582.87,Single-ply,SBD,M,
Boys,82.1,2,Omar Rodriguez,Hart,82.01,192.78,124.74,188.24,505.76,Single-ply,SBD,M,
Boys,82.1,3,Jesse Butcher,Amarillo Highland Park,82.05,174.63,108.86,217.72,501.22,Single-ply,SBD,M,
Boys,82.1,4,Luke Brooker,Whiteface,80.38,183.7,122.47,192.78,498.95,Single-ply,SBD,M,
Boys,82.1,5,Brody Black,Vega,76.79,185.97,104.33,183.7,474,Single-ply,SBD,M,
Boys,82.1,6,Caleb McDowell,Tulia,81.37,183.7,88.45,197.31,469.47,Single-ply,SBD,M,
Boys,82.1,7,Nathan Ceniceros,Lockney,79.29,149.69,108.86,206.38,464.93,Single-ply,SBD,M,
Boys,82.1,8,Tony Rodriguez,Friona,76.38,176.9,104.33,174.63,455.86,Single-ply,SBD,M,
Boys,82.1,9,Damian Arriaga,Dimmitt,81.51,167.83,104.33,165.56,437.72,Single-ply,SBD,M,
Boys,82.1,10,Jaden Noriega,Kress,76.11,156.49,97.52,163.29,417.3,Single-ply,SBD,M,
Boys,82.1,11,Brooks Burns,Lubbock All Saints School,80.74,142.88,90.72,183.7,417.3,Single-ply,SBD,M,
Boys,82.1,12,Thomas Tran,Amarillo Highland Park,82.05,142.88,97.52,174.63,415.04,Single-ply,SBD,M,
Boys,82.1,13,Abram Rocha,Friona,78.83,154.22,83.91,147.42,385.55,Single-ply,SBD,M,
Boys,82.1,14,Jordan Casas,Dimmitt,76.25,142.88,81.65,154.22,378.75,Single-ply,SBD,M,
Boys,82.1,15,Kaden Coats,Wolfforth Frenship,80.42,124.74,92.99,142.88,360.61,Single-ply,SBD,M,
Boys,82.1,16,Eszequiel Vidal,Dimmitt,81.47,129.27,83.91,147.42,360.61,Single-ply,SBD,M,
Boys,82.1,17,Elian Munoz,Bovina,79.51,122.47,79.38,136.08,337.93,Single-ply,SBD,M,
Boys,82.1,18,Micheal Bradford,San Angelo TLC Academy,75.7,142.88,52.16,133.81,328.85,Single-ply,SBD,M,
Boys,82.1,19,Jeremy Soliz,Whiteface,79.56,113.4,63.5,149.69,326.59,Single-ply,SBD,M,
Boys,82.1,20,Damion Reyes,Levelland,76.29,106.59,77.11,136.08,319.78,Single-ply,SBD,M,
Boys,82.1,21,Joe Ramirez,Levelland,80.38,102.06,65.77,147.42,315.25,Single-ply,SBD,M,
Boys,82.1,22,Avery Gutierrez,Wolfforth Frenship,80.1,102.06,70.31,113.4,285.76,Single-ply,SBD,M,
Boys,89.81,1,Nate Gensler,Lubbock Roosevelt,82.28,249.48,142.88,242.67,635.03,Single-ply,SBD,M,
Boys,89.81,2,Darian DeLaRosa,Bovina,87.54,197.31,102.06,195.04,494.42,Single-ply,SBD,M,
Boys,89.81,3,Abraham Loeza,Dimmitt,86.41,156.49,124.74,179.17,460.4,Single-ply,SBD,M,
Boys,89.81,4,Caleb Hill,San Angelo TLC Academy,85.05,183.7,111.13,142.88,437.72,Single-ply,SBD,M,
Boys,89.81,5,Reese Roberts,Wolfforth Frenship,85.87,142.88,106.59,167.83,417.3,Single-ply,SBD,M,
Boys,89.81,6,Hevilat Perez,Friona,83.19,158.76,95.25,147.42,401.43,Single-ply,SBD,M,
Boys,89.81,7,Yandel DeLeon,Bovina,88.95,142.88,65.77,145.15,353.8,Single-ply,SBD,M,
Boys,89.81,8,Angel Saucedo,Friona,84.64,127.01,70.31,127.01,324.32,Single-ply,SBD,M,
Boys,89.81,9,Donovan Almager,Whiteface,89.09,113.4,81.65,120.2,315.25,Single-ply,SBD,M,
Boys,89.81,DQ,Dominc Hernandez,Lubbock Roosevelt,87.68,204.12,120.2,,,Single-ply,SBD,M,
Boys,89.81,DQ,Jacob Bankston,Wolfforth Frenship,85.05,131.54,,,,Single-ply,SBD,M,
Boys,99.79,1,Joe Barrera,Tulia,98.11,260.82,183.7,251.74,696.26,Single-ply,SBD,M,
Boys,99.79,2,Gerardo Gonzalez,Dimmitt,95.39,213.19,117.93,263.08,594.21,Single-ply,SBD,M,
Boys,99.79,3,Thomas Sanchez,Lubbock Roosevelt,97.79,235.87,138.35,208.65,582.87,Single-ply,SBD,M,
Boys,99.79,4,Landin Noey,Lubbock Roosevelt,98.66,192.78,120.2,192.78,505.76,Single-ply,SBD,M,
Boys,99.79,5,Joe Pena,Levelland,95.89,174.63,108.86,170.1,453.59,Single-ply,SBD,M,
Boys,99.79,6,Aiden Herrera,Levelland,95.53,163.29,120.2,165.56,449.06,Single-ply,SBD,M,
Boys,99.79,7,Matthew Lopez,Dimmitt,95.03,172.37,113.4,158.76,444.52,Single-ply,SBD,M,
Boys,99.79,8,Rylee Davidson,Whiteface,90.49,149.69,99.79,192.78,442.25,Single-ply,SBD,M,
Boys,99.79,9,Jose Castillo,Kress,90.95,165.56,92.99,172.37,430.91,Single-ply,SBD,M,
Boys,99.79,10,Damian Casteneda,Whiteface,98.93,142.88,97.52,183.7,424.11,Single-ply,SBD,M,
Boys,99.79,11,Chris Hinojosa,San Angelo TLC Academy,99.11,142.88,88.45,183.7,415.04,Single-ply,SBD,M,
Boys,99.79,12,Matthew Burch,Amarillo Highland Park,96.75,133.81,97.52,158.76,390.09,Single-ply,SBD,M,
Boys,99.79,13,Sergio Ramos,Dimmitt,89.99,138.35,88.45,145.15,371.95,Single-ply,SBD,M,
Boys,99.79,14,Tad Burleson,Dimmitt,93.49,142.88,86.18,140.61,369.68,Single-ply,SBD,M,
Boys,99.79,15,Gabe Abarca,Friona,90.99,145.15,83.91,138.35,367.41,Single-ply,SBD,M,
Boys,99.79,16,Gabriel Nieto,Bovina,94.8,113.4,72.57,163.29,349.27,Single-ply,SBD,M,
Boys,99.79,17,Eric Alvarez,Whiteface,99.38,106.59,70.31,147.42,324.32,Single-ply,SBD,M,
Boys,99.79,DQ,Christian Annett,Bovina,90.31,156.49,,,,Single-ply,SBD,M,
Boys,99.79,DQ,Brayden Cortinaz,Wolfforth Frenship,99.7,188.24,,,,Single-ply,SBD,M,
Boys,109.77,1,Aaron Rodriguez,Friona,109.04,226.8,131.54,185.97,544.31,Single-ply,SBD,M,
Boys,109.77,2,Martin Hernandez,Dimmitt,108.36,195.04,108.86,235.87,539.77,Single-ply,SBD,M,
Boys,109.77,3,Eli Alvarez,Lockney,101.38,206.38,136.08,190.51,532.97,Single-ply,SBD,M,
Boys,109.77,4,Ishmael Flores,Friona,99.88,222.26,106.59,190.51,519.36,Single-ply,SBD,M,
Boys,109.77,5,Vince Reodica,San Angelo TLC Academy,101.97,188.24,117.93,192.78,498.95,Single-ply,SBD,M,
Boys,109.77,6,Matthew Dimas,Friona,103.51,183.7,115.67,185.97,485.34,Single-ply,SBD,M,
Boys,109.77,7,Zed Mendez,Whiteface,100.02,161.03,90.72,174.63,426.38,Single-ply,SBD,M,
Boys,109.77,8,Kaden Dobson,Whiteface,100.56,154.22,68.04,145.15,367.41,Single-ply,SBD,M,
Boys,109.77,9,Jasiah Tavarez,Dimmitt,102.29,136.08,70.31,154.22,360.61,Single-ply,SBD,M,
Boys,109.77,DQ,Michael Sanchez,Whiteface,107.64,,,,,Single-ply,SBD,M,
Boys,124.74,1,Jake Padilla,Friona,116.12,240.4,151.95,222.26,614.62,Single-ply,SBD,M,
Boys,124.74,2,Reynaldo Loredo,Wolfforth Frenship,113.85,210.92,120.2,213.19,544.31,Single-ply,SBD,M,
Boys,124.74,3,Anthony Abarca,Friona,112.31,208.65,108.86,210.92,528.44,Single-ply,SBD,M,
Boys,124.74,4,Jacinto Briones,Tulia,116.75,195.04,104.33,199.58,498.95,Single-ply,SBD,M,
Boys,124.74,5,Elijah Robledo,Friona,115.39,204.12,117.93,172.37,494.42,Single-ply,SBD,M,
Boys,124.74,6,Joshua Ortiz,Wolfforth Frenship,120.29,183.7,115.67,188.24,487.61,Single-ply,SBD,M,
Boys,124.74,7,Beau Brewer,Whiteface,115.08,176.9,86.18,176.9,439.98,Single-ply,SBD,M,
Boys,124.74,8,Ayden Winsniewski,Lubbock All Saints School,110.04,115.67,79.38,145.15,340.19,Single-ply,SBD,M,
Boys,139.71,1,Karson Jones,Wolfforth Frenship,135.08,231.33,181.44,265.35,678.12,Single-ply,SBD,M,
Boys,139.71,2,Jacob Hernandez,Vega,127.37,283.5,158.76,231.33,673.58,Single-ply,SBD,M,
Boys,139.71,3,Blaize Whitaker,Wolfforth Frenship,131.41,197.31,142.88,254.01,594.21,Single-ply,SBD,M,
Boys,139.71,4,Joshua Rangel,Wolfforth Frenship,136.21,199.58,120.2,231.33,551.11,Single-ply,SBD,M,
Boys,139.71,5,Chris Lea,Wolfforth Frenship,126.33,204.12,117.93,208.65,530.7,Single-ply,SBD,M,
Boys,139.71,6,Caden Pritchard,Lockney,139.39,188.24,136.08,181.44,505.76,Single-ply,SBD,M,
Boys,139.71+,1,Alfonso Chapa,Kress,155.22,142.88,83.91,102.06,328.85,Single-ply,SBD,M,
Boys,,NS,Eric Jaramillo,Friona,,,,,,Single-ply,SBD,M,
Boys,,NS,Jarrett White,Friona,,,,,,Single-ply,SBD,M,
Boys,,NS,Kevin Lucatero,Friona,,,,,,Single-ply,SBD,M,
Boys,,NS,Dagon Riley,Bovina,,,,,,Single-ply,SBD,M,
Boys,,NS,Michael Nieto,Bovina,,,,,,Single-ply,SBD,M,
Boys,,NS,Daniel Sánchez,Amarillo Highland Park,,,,,,Single-ply,SBD,M,
Boys,,NS,Daniel Ponce,Bovina,,,,,,Single-ply,SBD,M,
Boys,,NS,Isaac Alcala,Amarillo Highland Park,,,,,,Single-ply,SBD,M,
Boys,,NS,Luke Pompa,Levelland,,,,,,Single-ply,SBD,M,
Boys,,NS,James Walker,Kress,,,,,,Single-ply,SBD,M,
Boys,,NS,Jake Dixon,Kress,,,,,,Single-ply,SBD,M,
Boys,,NS,Elijah Munoz,Levelland,,,,,,Single-ply,SBD,M,
Boys,,NS,Carson Simmons,Lubbock Roosevelt,,,,,,Single-ply,SBD,M,
Boys,,NS,Logan Bartlett,Lubbock Roosevelt,,,,,,Single-ply,SBD,M,
Boys,,NS,Masen Rehkopf,Lockney,,,,,,Single-ply,SBD,M,
Boys,,NS,Xathen Chasco,Tulia,,,,,,Single-ply,SBD,M,
Boys,,NS,Daniel Rangel,San Angelo TLC Academy,,,,,,Single-ply,SBD,M,
Boys,,NS,Levi Murphy,San Angelo TLC Academy,,,,,,Single-ply,SBD,M,
Boys,,NS,Brandon Gluhm,San Angelo TLC Academy,,,,,,Single-ply,SBD,M,
Boys,,NS,Brighton Scoggins,Whiteface,,,,,,Single-ply,SBD,M,
