Division,WeightClassKg,Place,Name,Team,BodyweightKg,Best3SquatKg,Best3BenchKg,Best3DeadliftKg,TotalKg,Equipment,Event,Sex,BirthDate
Boys,51.71,1,Donovan Carter #3,Carrollton Ranchview,48.76,72.57,52.16,77.11,201.85,Single-ply,SBD,M,
Boys,55.79,1,Eric Melendez,Carrollton Turner,52.84,56.7,34.02,77.11,167.83,Single-ply,SBD,M,
Boys,59.87,1,Andrew Mast,Carrollton Creekview,59.87,136.08,88.45,154.22,378.75,Single-ply,SBD,M,
Boys,59.87,2,Aidan Gray,Carrollton Creekview,59.65,106.59,74.84,120.2,301.64,Single-ply,SBD,M,
Boys,59.87,3,Joel Choi,Carrollton Ranchview,59.87,106.59,65.77,120.2,292.57,Single-ply,SBD,M,
Boys,59.87,4,Vinay Baath,Carrollton Ranchview,59.65,102.06,63.5,120.2,285.76,Single-ply,SBD,M,
Boys,59.87,5,Romario Melendez,Carrollton Turner,57.15,88.45,63.5,117.93,269.89,Single-ply,SBD,M,
Boys,67.13,1,Kasey Nguyen,Carrollton Creekview,66.9,188.24,104.33,188.24,480.81,Single-ply,SBD,M,
Boys,67.13,2,Donovan Smith,Carrollton Turner,65.77,167.83,102.06,192.78,462.66,Single-ply,SBD,M,
Boys,67.13,3,Calvin Nguyen,Carrollton Creekview,66.22,133.81,70.31,140.61,344.73,Single-ply,SBD,M,
Boys,67.13,4,Ashton Nguyen,Carrollton Creekview,63.96,136.08,65.77,136.08,337.93,Single-ply,SBD,M,
Boys,67.13,5,Jaeden Lester,Carrollton Ranchview,63.73,124.74,70.31,127.01,322.05,Single-ply,SBD,M,
Boys,74.84,1,David Thompson,Carrollton Creekview,69.85,204.12,136.08,226.8,566.99,Single-ply,SBD,M,
Boys,74.84,2,Josiah Robison,Carrollton Creekview,74.84,158.76,108.86,158.76,426.38,Single-ply,SBD,M,
Boys,74.84,3,Zachary Byrdsong,Carrollton Ranchview,68.04,136.08,70.31,142.88,349.27,Single-ply,SBD,M,
Boys,74.84,4,Beck Limon,Carrollton Creekview,74.16,129.27,70.31,149.69,349.27,Single-ply,SBD,M,
Boys,74.84,5,Bobby Shewandagne,Carrollton Creekview,70.31,111.13,61.23,129.27,301.64,Single-ply,SBD,M,
Boys,82.1,1,Ryan Jung,Carrollton Creekview,80.06,204.12,129.27,219.99,553.38,Single-ply,SBD,M,
Boys,82.1,2,Roberto Martínez,Carrollton Turner,79.83,129.27,97.52,131.54,358.34,Single-ply,SBD,M,
Boys,82.1,3,Edgar Castilla,Carrollton Turner,79.83,111.13,72.57,142.88,326.59,Single-ply,SBD,M,
Boys,82.1,DQ,Xavier Pearson,Carrollton Ranchview,79.83,,,,,Single-ply,SBD,M,
Boys,89.81,1,Joshua Toyphommarath,Carrollton Creekview,89.81,210.92,133.81,199.58,544.31,Single-ply,SBD,M,
Boys,89.81,2,Julian Arevalo,Carrollton Turner,85.5,174.63,108.86,158.76,442.25,Single-ply,SBD,M,
Boys,89.81,3,Jack Nelson,Carrollton Creekview,89.58,145.15,90.72,142.88,378.75,Single-ply,SBD,M,
Boys,89.81,4,Matthew Jean-Francois,Carrollton Ranchview,86.64,108.86,83.91,127.01,319.78,Single-ply,SBD,M,
Boys,89.81,5,Cole Mclain,Carrollton Creekview,83.91,115.67,74.84,120.2,310.71,Single-ply,SBD,M,
Boys,89.81,DQ,DaMarcus Cannon,Carrollton Creekview,88.45,142.88,72.57,,,Single-ply,SBD,M,
Boys,99.79,1,Josue Benavides,Carrollton Creekview,96.39,183.7,108.86,185.97,478.54,Single-ply,SBD,M,
Boys,99.79,2,Joel Portillo,Carrollton Turner,93.21,170.1,113.4,170.1,453.59,Single-ply,SBD,M,
Boys,109.77,1,Isaiah Cabriales,Carrollton Turner,109.54,226.8,142.88,165.56,535.24,Single-ply,SBD,M,
Boys,109.77,2,Gage Porche,Carrollton Creekview,105.23,138.35,81.65,154.22,374.21,Single-ply,SBD,M,
Boys,109.77,3,Josh Marquez,Carrollton Turner,100.7,136.08,86.18,145.15,367.41,Single-ply,SBD,M,
Boys,124.74,1,Noah Sanchez,Carrollton Creekview,116.8,170.1,117.93,181.44,469.47,Single-ply,SBD,M,
Boys,124.74,2,Carlos Martinez #31,Carrollton Turner,119.98,149.69,83.91,142.88,376.48,Single-ply,SBD,M,
Boys,124.74,DQ,Travis Chinamhora,Carrollton Creekview,118.84,142.88,88.45,,,Single-ply,SBD,M,
Boys,139.71,1,Efrain Guereca,Carrollton Turner,130.86,213.19,147.42,170.1,530.7,Single-ply,SBD,M,
Boys,139.71,2,Kelen Battle-Williams,Carrollton Ranchview,135.85,215.46,111.13,176.9,503.49,Single-ply,SBD,M,
Boys,139.71,3,Joshua McMurray,Carrollton Creekview,131.09,140.61,136.08,136.08,412.77,Single-ply,SBD,M,
Boys,,NS,Joseph Lee,Carrollton Ranchview,,,,,,Single-ply,SBD,M,
Boys,,NS,Antonio Reader,Carrollton Ranchview,,,,,,Single-ply,SBD,M,
Boys,,NS,Kevin Cabrera,Carrollton Creekview,,,,,,Single-ply,SBD,M,
Boys,,NS,Keolan Harongsemal,Carrollton Creekview,,,,,,Single-ply,SBD,M,
