Division,WeightClassKg,Place,Name,Team,BodyweightKg,Best3SquatKg,Best3BenchKg,Best3DeadliftKg,TotalKg,Equipment,Event,Sex,BirthDate
Boys,51.71,1,Michael Longoria,San Diego,51.62,151.95,113.4,174.63,439.98,Single-ply,SBD,M,
Boys,51.71,2,Fabian Solis,Edinburg Idea College Prep,49.62,158.76,102.06,165.56,426.38,Single-ply,SBD,M,
Boys,51.71,3,Christopher Cancino,San Antonio Cole,51.71,142.88,99.79,142.88,385.55,Single-ply,SBD,M,
Boys,51.71,4,Austin Molina,Odem,49.35,140.61,77.11,142.88,360.61,Single-ply,SBD,M,
Boys,51.71,5,Julian Betancourt,Lyford,50.44,133.81,74.84,142.88,351.53,Single-ply,SBD,M,
Boys,51.71,6,Tre Ortega,Bishop,51.71,129.27,61.23,145.15,335.66,Single-ply,SBD,M,
Boys,51.71,7,Ethan Sanchez,San Diego,47.99,108.86,86.18,122.47,317.51,Single-ply,SBD,M,
Boys,51.71,8,Caleb Rucker,Stockdale,50.8,117.93,65.77,122.47,306.17,Single-ply,SBD,M,
Boys,51.71,9,Ayden Benavidez,Corpus Christi London,50.53,117.93,61.23,124.74,303.91,Single-ply,SBD,M,
Boys,51.71,NS,Jesse Ortiz,Jourdanton,,,,,,Single-ply,SBD,M,
Boys,51.71,NS,Christian Lazo,San Diego,,,,,,Single-ply,SBD,M,
Boys,51.71,NS,Christian Trevino,San Diego,,,,,,Single-ply,SBD,M,
Boys,55.79,1,Zack Chapa,Corpus Christi London,55.79,176.9,104.33,170.1,451.32,Single-ply,SBD,M,
Boys,55.79,2,Romulo Torres,San Diego,55.79,170.1,92.99,167.83,430.91,Single-ply,SBD,M,
Boys,55.79,3,Sammy Ronje,Bishop,55.79,163.29,102.06,165.56,430.91,Single-ply,SBD,M,
Boys,55.79,4,Antonio Gallegos,San Diego,55.25,161.03,106.59,138.35,405.97,Single-ply,SBD,M,
Boys,55.79,5,Tanner Weaver,Orange Grove,55.52,154.22,86.18,156.49,396.89,Single-ply,SBD,M,
Boys,55.79,6,Angelo Legaspe,San Antonio Cole,55.25,142.88,97.52,151.95,392.36,Single-ply,SBD,M,
Boys,55.79,7,Austin Maldonado,Falfurrias,52.89,136.08,83.91,161.03,381.02,Single-ply,SBD,M,
Boys,55.79,8,Steve Vargas,Edinburg Quest College Prep,55.7,142.88,79.38,151.95,374.21,Single-ply,SBD,M,
Boys,55.79,9,Javier Ramos,Edinburg Quest College Prep,54.34,142.88,79.38,145.15,367.41,Single-ply,SBD,M,
Boys,55.79,NS,John Ryan Dimicali,Bishop,,,,,,Single-ply,SBD,M,
Boys,55.79,NS,Adam Romero,Odem,,,,,,Single-ply,SBD,M,
Boys,55.79,DQ,Joseph Salazar,Cotulla,54.88,,,,,Single-ply,SBD,M,
Boys,55.79,DQ,Colten Brown,Jourdanton,55.79,,,,,Single-ply,SBD,M,
Boys,59.87,1,Joseph Rivera-Giprich,Mathis,59.69,197.31,115.67,222.26,535.24,Single-ply,SBD,M,
Boys,59.87,2,James Adams,Odem,59.87,199.58,124.74,199.58,523.9,Single-ply,SBD,M,
Boys,59.87,3,Gabriel Chavez,Lyford,59.69,210.92,99.79,201.85,512.56,Single-ply,SBD,M,
Boys,59.87,4,Ashton Garcia,San Diego,59.69,179.17,129.27,190.51,498.95,Single-ply,SBD,M,
Boys,59.87,5,Jayme Robles,Stockdale,59.87,188.24,106.59,192.78,487.61,Single-ply,SBD,M,
Boys,59.87,6,Ryan Garcia,Corpus Christi London,59.42,185.97,113.4,183.7,483.08,Single-ply,SBD,M,
Boys,59.87,7,Diego Cruz,Santa Rosa,59.51,170.1,113.4,167.83,451.32,Single-ply,SBD,M,
Boys,59.87,8,Nick Garza,Taft,59.42,158.76,92.99,176.9,428.64,Single-ply,SBD,M,
Boys,59.87,9,Nicolas Martinez,Stockdale,57.33,165.56,83.91,172.37,421.84,Single-ply,SBD,M,
Boys,59.87,NS,Austin Lopez,Banquete,,,,,,Single-ply,SBD,M,
Boys,59.87,DQ,Jose Gonzalez,Cotulla,57.52,,,,,Single-ply,SBD,M,
Boys,59.87,DQ,Alex Garcia #2,Cotulla,57.24,192.78,,,,Single-ply,SBD,M,
Boys,67.13,1,Andres Garza,San Diego,66.04,238.14,147.42,215.46,601.01,Single-ply,SBD,M,
Boys,67.13,2,Alex Gonzalez #3,Banquete,67.13,217.72,124.74,206.38,548.85,Single-ply,SBD,M,
Boys,67.13,3,Oscar Garza,Edinburg Idea College Prep,66.86,188.24,147.42,208.65,544.31,Single-ply,SBD,M,
Boys,67.13,4,Jacob Garcia,Cotulla,66.41,201.85,131.54,201.85,535.24,Single-ply,SBD,M,
Boys,67.13,5,Adrian Valdez,Goliad,65.41,208.65,122.47,201.85,532.97,Single-ply,SBD,M,
Boys,67.13,6,Elyon Ybarra,Mathis,67.04,192.78,147.42,192.78,532.97,Single-ply,SBD,M,
Boys,67.13,7,Diego Perez,Edinburg Quest College Prep,65.32,204.12,106.59,204.12,514.83,Single-ply,SBD,M,
Boys,67.13,8,Tiago Ogden,San Antonio Cole,66.59,174.63,120.2,210.92,505.76,Single-ply,SBD,M,
Boys,67.13,9,Jayden Ibarra,Poteet,66.68,199.58,113.4,192.78,505.76,Single-ply,SBD,M,
Boys,67.13,10,GianCarlo Mirabal,Corpus Christi London,66.5,195.04,104.33,192.78,492.15,Single-ply,SBD,M,
Boys,67.13,11,Marco Gonzales,Odem,67.04,192.78,111.13,183.7,487.61,Single-ply,SBD,M,
Boys,67.13,DQ,Juan Castillo,Bishop,66.36,174.63,,,,Single-ply,SBD,M,
Boys,74.84,1,Lukas Salaiz,San Diego,72.67,267.62,185.97,254.01,707.6,Single-ply,SBD,M,
Boys,74.84,2,Adrian Vasquez,Natalia,73.84,265.35,136.08,244.94,646.37,Single-ply,SBD,M,
Boys,74.84,3,Joseph Chavez,Taft,73.57,249.48,124.74,226.8,601.01,Single-ply,SBD,M,
Boys,74.84,4,Leonel Guerrero,Hebbronville,74.75,226.8,142.88,229.06,598.74,Single-ply,SBD,M,
Boys,74.84,5,Jack Edwards,Santa Gertrudis Academy,73.48,231.33,131.54,204.12,566.99,Single-ply,SBD,M,
Boys,74.84,6,Luke Fanno,Jourdanton,69.67,206.38,142.88,210.92,560.19,Single-ply,SBD,M,
Boys,74.84,7,Carson Cable,Corpus Christi London,73.75,199.58,124.74,231.33,555.65,Single-ply,SBD,M,
Boys,74.84,8,Damien Jimenez,Bishop,74.71,249.48,113.4,183.7,546.58,Single-ply,SBD,M,
Boys,74.84,9,Victor Rubalcaba,Lyford,72.67,213.19,113.4,208.65,535.24,Single-ply,SBD,M,
Boys,74.84,10,Trevor Bennett,Goliad,74.84,215.46,108.86,208.65,532.97,Single-ply,SBD,M,
Boys,74.84,DQ,Ethan Moreno,Lyford,73.03,206.38,115.67,,,Single-ply,SBD,M,
Boys,74.84,DQ,Alex Ramon,Poth,73.57,,,,,Single-ply,SBD,M,
Boys,82.1,1,Chris Verdin,Jourdanton,81.47,278.96,176.9,274.42,730.28,Single-ply,SBD,M,
Boys,82.1,2,Jaime Salinas,San Diego,80.1,278.96,179.17,226.8,684.92,Single-ply,SBD,M,
Boys,82.1,3,Javier Salas,Corpus Christi London,81.28,244.94,165.56,251.74,662.24,Single-ply,SBD,M,
Boys,82.1,4,Logan Baker,Stockdale,81.01,258.55,138.35,244.94,641.83,Single-ply,SBD,M,
Boys,82.1,5,AJ Gomez,Mathis,80.29,235.87,156.49,235.87,628.23,Single-ply,SBD,M,
Boys,82.1,6,Jacob Charles,Corpus Christi London,81.74,235.87,147.42,240.4,623.69,Single-ply,SBD,M,
Boys,82.1,7,Paul Baez,Hebbronville,82.1,229.06,179.17,215.46,623.69,Single-ply,SBD,M,
Boys,82.1,8,Justin Fowler,George West,80.65,233.6,154.22,224.53,612.35,Single-ply,SBD,M,
Boys,82.1,9,Ace Navarijo,Corpus Christi London,80.74,231.33,165.56,215.46,612.35,Single-ply,SBD,M,
Boys,82.1,10,Matthew Jarzombek,Poth,80.38,226.8,131.54,238.14,596.47,Single-ply,SBD,M,
Boys,82.1,11,Jason Vega,Lytle,80.47,215.46,151.95,226.8,594.21,Single-ply,SBD,M,
Boys,82.1,DQ,JoAnthony Mendoza,Jourdanton,80.01,,,,,Single-ply,SBD,M,
Boys,89.81,1,Juan Lerma,Jourdanton,88.9,254.01,233.6,242.67,730.28,Single-ply,SBD,M,
Boys,89.81,2,Matt Perez,Mathis,87.36,290.3,188.24,240.4,718.94,Single-ply,SBD,M,
Boys,89.81,3,Nathaniel Arias,Jourdanton,86.27,254.01,163.29,265.35,682.66,Single-ply,SBD,M,
Boys,89.81,4,Mario Diaz,Lytle,88.45,238.14,142.88,276.69,657.71,Single-ply,SBD,M,
Boys,89.81,5,Brandon Beltran,Odem,89.54,267.62,179.17,210.92,657.71,Single-ply,SBD,M,
Boys,89.81,6,Gaylen Garcia,Natalia,88.63,260.82,145.15,235.87,641.83,Single-ply,SBD,M,
Boys,89.81,7,Danilo Lugo,Jourdanton,88.99,242.67,142.88,249.48,635.03,Single-ply,SBD,M,
Boys,89.81,8,Matthew Ortiz,Orange Grove,87.63,240.4,156.49,219.99,616.89,Single-ply,SBD,M,
Boys,89.81,9,Trace Higginbotham,San Antonio Cornerstone Christian School,82.64,260.82,122.47,213.19,596.47,Single-ply,SBD,M,
Boys,89.81,10,Keegan Westmoreland,Skidmore-Tynan,86.82,222.26,129.27,204.12,555.65,Single-ply,SBD,M,
Boys,89.81,11,Asher Dupuis,Corpus Christi London,87.63,210.92,147.42,181.44,539.77,Single-ply,SBD,M,
Boys,89.81,NS,Jadon Rodriguez,San Diego,,,,,,Single-ply,SBD,M,
Boys,89.81,DQ,Andres Ruiz,Poth,89.18,,,,,Single-ply,SBD,M,
Boys,99.79,1,Vicente Correa,Dilley,92.99,254.01,154.22,249.48,657.71,Single-ply,SBD,M,
Boys,99.79,2,Carlos Martinez,Lyford,99.06,240.4,145.15,240.4,625.96,Single-ply,SBD,M,
Boys,99.79,3,DJ Nunez,Karnes City,98.25,249.48,142.88,226.8,619.15,Single-ply,SBD,M,
Boys,99.79,4,Austin Dubose,Lytle,93.44,226.8,147.42,233.6,607.81,Single-ply,SBD,M,
Boys,99.79,5,Cooper Awbrey,Jourdanton,91.99,226.8,142.88,231.33,601.01,Single-ply,SBD,M,
Boys,99.79,6,James Dorsey,Corpus Christi London,98.97,215.46,142.88,233.6,591.94,Single-ply,SBD,M,
Boys,99.79,7,Luis Buentello,Natalia,92.62,226.8,124.74,226.8,578.33,Single-ply,SBD,M,
Boys,99.79,8,Rudy Velasquez,Cotulla,93.17,204.12,142.88,226.8,573.79,Single-ply,SBD,M,
Boys,99.79,9,Donald Neal Parks,Jourdanton,95.16,226.8,140.61,206.38,573.79,Single-ply,SBD,M,
Boys,99.79,DQ,Daniel Solorio,Santa Gertrudis Academy,93.44,235.87,127.01,,,Single-ply,SBD,M,
Boys,99.79,DQ,Antonio Saldana,Santa Rosa,98.88,,,,,Single-ply,SBD,M,
Boys,99.79,DQ,Corbin Dunn,Poteet,97.98,,,,,Single-ply,SBD,M,
Boys,109.77,1,Lance Lopez,Orange Grove,104.51,299.37,190.51,240.4,730.28,Single-ply,SBD,M,
Boys,109.77,2,Daniel Tamez,Odem,102.69,285.76,156.49,258.55,700.8,Single-ply,SBD,M,
Boys,109.77,3,Alejandro Gómez,Hebbronville,103.6,272.16,195.04,213.19,680.39,Single-ply,SBD,M,
Boys,109.77,4,Victor DelBosque,Orange Grove,105.14,258.55,179.17,222.26,659.98,Single-ply,SBD,M,
Boys,109.77,5,Dylon Gatica,Karnes City,104.05,238.14,138.35,217.72,594.21,Single-ply,SBD,M,
Boys,109.77,6,Eian Meza,Aransas Pass,108.86,219.99,151.95,217.72,589.67,Single-ply,SBD,M,
Boys,109.77,7,James Garza,Falfurrias,104.24,224.53,138.35,224.53,587.4,Single-ply,SBD,M,
Boys,109.77,8,Adrian Carrazco,Dilley,108.5,219.99,165.56,201.85,587.4,Single-ply,SBD,M,
Boys,109.77,9,Jorge Guerra,San Diego,107.05,235.87,142.88,197.31,576.06,Single-ply,SBD,M,
Boys,109.77,NS,Gabriel Arguijo,Jourdanton,,,,,,Single-ply,SBD,M,
Boys,109.77,DQ,Adrien Perales,Cotulla,104.87,,,,,Single-ply,SBD,M,
Boys,109.77,DQ,Nathanial Lerma,Poth,105.69,,,,,Single-ply,SBD,M,
Boys,124.74,1,Dante DeLeon,Mathis,113.31,347,281.23,269.89,898.11,Single-ply,SBD,M,
Boys,124.74,2,Eric Garcia,San Diego,120.93,254.01,195.04,219.99,669.05,Single-ply,SBD,M,
Boys,124.74,3,Julian Moreno,Santa Rosa,111.86,235.87,183.7,244.94,664.51,Single-ply,SBD,M,
Boys,124.74,4,Isaac Caldera,Bishop,118.66,272.16,158.76,217.72,648.64,Single-ply,SBD,M,
Boys,124.74,5,Keegan Garcia,San Antonio Cornerstone Christian School,120.56,244.94,124.74,274.42,644.1,Single-ply,SBD,M,
Boys,124.74,6,Isaiah Ricondo,San Antonio Cornerstone Christian School,121.29,263.08,154.22,226.8,644.1,Single-ply,SBD,M,
Boys,124.74,7,Jace Dawson,San Antonio Cornerstone Christian School,121.65,235.87,154.22,208.65,598.74,Single-ply,SBD,M,
Boys,124.74,8,Juanito Cabrera,Falfurrias,124.56,242.67,124.74,219.99,587.4,Single-ply,SBD,M,
Boys,124.74,9,Cyrus Vaughn,San Antonio Cole,113.67,204.12,147.42,226.8,578.33,Single-ply,SBD,M,
Boys,124.74,10,Solomon Barnoski,Karnes City,115.67,226.8,138.35,208.65,573.79,Single-ply,SBD,M,
Boys,124.74,DQ,Jacob Gomez,Taft,116.12,285.76,165.56,,,Single-ply,SBD,M,
Boys,124.74,DQ,Jesse Siegford,Odem,110.31,,,,,Single-ply,SBD,M,
Boys,139.71,1,Christopher Rodriguez,Hebbronville,130.54,340.19,197.31,242.67,780.18,Single-ply,SBD,M,
Boys,139.71,2,Kaleb Linares,Cotulla,126.46,340.19,192.78,226.8,759.77,Single-ply,SBD,M,
Boys,139.71,3,LeVerius Gage,Goliad,128.73,301.64,170.1,254.01,725.75,Single-ply,SBD,M,
Boys,139.71,4,Damian Delgado,Bishop,136.98,283.5,179.17,208.65,671.32,Single-ply,SBD,M,
Boys,139.71,5,Jayden Valderas,Hebbronville,130.82,210.92,156.49,201.85,569.26,Single-ply,SBD,M,
Boys,139.71,6,Conrad Padron,Skidmore-Tynan,135.9,235.87,142.88,190.51,569.26,Single-ply,SBD,M,
Boys,139.71,7,Caleb Galindo,Jourdanton,129.73,204.12,163.29,197.31,564.72,Single-ply,SBD,M,
Boys,139.71,8,Brandon Montez,Taft,127.01,226.8,131.54,204.12,562.45,Single-ply,SBD,M,
Boys,139.71,9,Nelson Quintero,Edinburg Idea College Prep,132.9,206.38,133.81,210.92,551.11,Single-ply,SBD,M,
Boys,139.71,10,Omar Carbajal,Falfurrias,128,215.46,124.74,206.38,546.58,Single-ply,SBD,M,
Boys,139.71,DQ,Gerardo Rios,Santa Rosa,130.73,,,,,Single-ply,SBD,M,
Boys,139.71,DQ,Moses Saucedo,Mathis,127.01,235.87,158.76,,,Single-ply,SBD,M,
Boys,139.71+,1,Pablo Vega,San Diego,141.79,244.94,183.7,244.94,673.58,Single-ply,SBD,M,
Boys,139.71+,2,Louis Pena,San Diego,140.16,233.6,158.76,222.26,614.62,Single-ply,SBD,M,
Boys,139.71+,3,Dustin Cruz,Natalia,141.07,229.06,136.08,229.06,594.21,Single-ply,SBD,M,
Boys,139.71+,4,Jose Alaniz,Hebbronville,140.16,219.99,142.88,219.99,582.87,Single-ply,SBD,M,
Boys,139.71+,5,Victor Moreno,Cotulla,156.49,215.46,142.88,215.46,573.79,Single-ply,SBD,M,
Boys,139.71+,6,Martin Hernandez,Aransas Pass,141.97,238.14,106.59,204.12,548.85,Single-ply,SBD,M,
Boys,139.71+,7,Ethan Lopez,Karnes City,172.82,235.87,102.06,210.92,548.85,Single-ply,SBD,M,
Boys,139.71+,8,Joseph Gonzalez,Falfurrias,152.68,167.83,129.27,163.29,460.4,Single-ply,SBD,M,
Boys,139.71+,9,Randy Dorsey,Bishop,156.49,145.15,83.91,176.9,405.97,Single-ply,SBD,M,
Boys,139.71+,10,Alex Alvarez #2,Dilley,144.7,124.74,83.91,136.08,344.73,Single-ply,SBD,M,
