Division,WeightClassKg,Place,Name,Team,BodyweightKg,Best3SquatKg,Best3BenchKg,Best3DeadliftKg,TotalKg,Equipment,Event,Sex
Boys,55.79,1,Darius Jackson,Robinson,51.8,136.08,81.65,145.15,362.87,Single-ply,SBD,M
Boys,51.71,2,Kyler Tinsley,Teague,48.26,72.57,38.56,99.79,210.92,Single-ply,SBD,M
Boys,55.79,1,Miguel Contreras,Robinson,54.07,151.95,74.84,149.69,376.48,Single-ply,SBD,M
Boys,55.79,2,Alek Webster,Killeen Shoemaker,55.34,104.33,79.38,151.95,335.66,Single-ply,SBD,M
Boys,55.79,3,Jesus Tonche,Waco Connally,55.43,122.47,70.31,140.61,333.39,Single-ply,SBD,M
Boys,55.79,4,Jeremy Alaniz,Riesel,53.89,115.67,63.5,117.93,297.1,Single-ply,SBD,M
Boys,55.79,5,Andrew Gonzales,Waco University,55.79,106.59,58.97,113.4,278.96,Single-ply,SBD,M
Boys,55.79,6,Jahvier Nivar,Killeen Ellison,53.16,102.06,,,102.06,Single-ply,S,M
Boys,59.87,1,Troy Robinson #1,Waco,57.88,138.35,92.99,129.27,360.61,Single-ply,SBD,M
Boys,59.87,2,Jt Jones,Teague,59.6,120.2,65.77,136.08,322.05,Single-ply,SBD,M
Boys,59.87,3,Kristopher Glyn,Waco University,57.15,113.4,63.5,127.01,303.91,Single-ply,SBD,M
Boys,59.87,4,Gerald McAllister,Killeen Ellison,58.33,90.72,83.91,124.74,299.37,Single-ply,SBD,M
Boys,59.87,5,Dylan Fuschino,Waco Connally,56.25,115.67,63.5,117.93,297.1,Single-ply,SBD,M
Boys,59.87,6,Angelo Romo,Waco University,58.97,106.59,65.77,113.4,285.76,Single-ply,SBD,M
Boys,59.87,7,Austin Craft,Waco University,56.52,111.13,56.7,111.13,278.96,Single-ply,SBD,M
Boys,67.13,1,Antwan Coleman,Waco University,65.41,195.04,111.13,185.97,492.15,Single-ply,SBD,M
Boys,67.13,2,Jared Arey,Teague,65.14,181.44,95.25,185.97,462.66,Single-ply,SBD,M
Boys,67.13,3,Gabe Cobos,Riesel,65.68,136.08,88.45,176.9,401.43,Single-ply,SBD,M
Boys,67.13,4,Desmond Jefferson,Killeen Shoemaker,65.68,142.88,90.72,136.08,369.68,Single-ply,SBD,M
Boys,67.13,5,Harley Eldridge,Waco Connally,63.59,124.74,79.38,145.15,349.27,Single-ply,SBD,M
Boys,67.13,6,Gerald Wilborn,Waco,66.41,120.2,79.38,142.88,342.46,Single-ply,SBD,M
Boys,67.13,7,Nelson Musgrave,Waco Connally,61.42,120.2,72.57,142.88,335.66,Single-ply,SBD,M
Boys,67.13,8,Danny Tucker,Waco,65.68,122.47,70.31,129.27,322.05,Single-ply,SBD,M
Boys,67.13,9,Desmond Harris,Waco Connally,66.95,117.93,68.04,131.54,317.51,Single-ply,SBD,M
Boys,67.13,10,Nathan Salazar,Waco,61.42,86.18,63.5,102.06,251.74,Single-ply,SBD,M
Boys,67.13,11,Xavier Robertson,Waco University,66.22,161.03,,,161.03,Single-ply,S,M
Boys,82.1,1,Hunter Work,Robinson,74.93,195.04,142.88,190.51,528.44,Single-ply,SBD,M
Boys,74.84,2,Coy Jorden,Teague,73.57,192.78,108.86,195.04,496.68,Single-ply,SBD,M
Boys,74.84,3,Javonte Warren,Killeen Shoemaker,72.39,204.12,104.33,185.97,494.42,Single-ply,SBD,M
Boys,74.84,4,Matt McQueen,Robinson,73.84,181.44,97.52,165.56,444.52,Single-ply,SBD,M
Boys,74.84,5,Jose Bonilla,Killeen Shoemaker,67.4,165.56,95.25,174.63,435.45,Single-ply,SBD,M
Boys,74.84,6,Justin Albert,Killeen Shoemaker,69.58,179.17,92.99,149.69,421.84,Single-ply,SBD,M
Boys,74.84,7,Damarcus Baisy,Waco University,69.22,133.81,97.52,158.76,390.09,Single-ply,SBD,M
Boys,74.84,8,Spencer Majors,Waco University,74.03,142.88,83.91,163.29,390.09,Single-ply,SBD,M
Boys,74.84,8,Chris Whitehead,Waco,74.12,79.38,68.04,136.08,283.5,Single-ply,SBD,M
Boys,74.84,9,Abraham Zuniga,Waco University,72.3,122.47,86.18,129.27,337.93,Single-ply,SBD,M
Boys,74.84,10,Jacquez Edward,Waco University,71.76,120.2,77.11,136.08,333.39,Single-ply,SBD,M
Boys,74.84,11,Garrett Rolf,Robinson,73.75,161.03,,,161.03,Single-ply,S,M
Boys,89.81,1,Marco Vasquez,Riesel,82.19,195.04,136.08,181.44,512.56,Single-ply,SBD,M
Boys,82.1,2,Nigel Deas,Killeen Ellison,78.83,156.49,102.06,172.37,430.91,Single-ply,SBD,M
Boys,82.1,3,Jakob Dancer,Teague,76.75,165.56,77.11,181.44,424.11,Single-ply,SBD,M
Boys,82.1,4,J'Shaun Collins,Killeen Shoemaker,81.92,133.81,102.06,188.24,424.11,Single-ply,SBD,M
Boys,82.1,5,Ryan Baty,Riesel,77.66,149.69,90.72,147.42,387.82,Single-ply,SBD,M
Boys,82.1,6,Jeffrey Morua,Waco University,77.11,127.01,83.91,147.42,358.34,Single-ply,SBD,M
Boys,82.1,7,Michael Autenrieth,Waco Connally,78.65,142.88,68.04,147.42,358.34,Single-ply,SBD,M
Boys,82.1,9,Micah Weaver,Waco,77.47,106.59,58.97,111.13,276.69,Single-ply,SBD,M
Boys,82.1,NS,Braxton Stefka,Riesel,,,,,,Single-ply,SBD,M
Boys,89.81,1,Darian Robinson,Waco Connally,86.82,204.12,127.01,222.26,553.38,Single-ply,SBD,M
Boys,89.81,2,Ricky Thompson #1,Robinson,84.1,204.12,111.13,226.8,542.04,Single-ply,SBD,M
Boys,89.81,3,Cody Finnegan,Riesel,86.45,181.44,97.52,163.29,442.25,Single-ply,SBD,M
Boys,89.81,4,Fabian Trujillo,Killeen Ellison,83.55,151.95,115.67,165.56,433.18,Single-ply,SBD,M
Boys,89.81,5,Ty Cross,Robinson,85.91,170.1,81.65,181.44,433.18,Single-ply,SBD,M
Boys,89.81,6,Milton Collazo,Killeen Shoemaker,85.91,142.88,106.59,145.15,394.63,Single-ply,SBD,M
Boys,89.81,DQ,Jonathan Rosado,Waco University,83.82,,,,,Single-ply,SBD,M
Boys,99.79,1,Chris Robinson #5,Waco Connally,99.06,272.16,149.69,249.48,671.32,Single-ply,SBD,M
Boys,99.79,2,Rodrick Harris,Waco,91.08,210.92,106.59,188.24,505.76,Single-ply,SBD,M
Boys,99.79,3,Brandon Smith,Killeen Ellison,93.8,158.76,142.88,188.24,489.88,Single-ply,SBD,M
Boys,99.79,4,Brandon Jackson,Waco,93.8,158.76,106.59,188.24,453.59,Single-ply,SBD,M
Boys,99.79,5,Bobby Moore #1,Killeen Shoemaker,96.71,190.51,88.45,174.63,453.59,Single-ply,SBD,M
Boys,99.79,6,Gary Dyer,Teague,97.89,170.1,92.99,190.51,453.59,Single-ply,SBD,M
Boys,99.79,7,Lazarous Flores,Waco,93.62,156.49,106.59,172.37,435.45,Single-ply,SBD,M
Boys,99.79,8,Buck Foust,Robinson,94.35,158.76,81.65,147.42,387.82,Single-ply,SBD,M
Boys,99.79,9,Gerardo Calixtro,Teague,92.71,142.88,70.31,151.95,365.14,Single-ply,SBD,M
Boys,99.79,DQ,Joseph Reddick,Riesel,93.53,,,,,Single-ply,SBD,M
Boys,109.77,1,Kelton Henderson,Teague,109.32,294.84,165.56,238.14,698.53,Single-ply,SBD,M
Boys,109.77,2,Ryan de la Garza,Waco Connally,107.95,276.69,149.69,226.8,653.17,Single-ply,SBD,M
Boys,109.77,3,Ocee Beasley,Waco,101.97,136.08,113.4,188.24,437.72,Single-ply,SBD,M
Boys,109.77,4,Preston Gaskamp,Robinson,105.69,161.03,108.86,163.29,433.18,Single-ply,SBD,M
Boys,109.77,5,Robert Gonzales,Waco University,100.52,142.88,92.99,163.29,399.16,Single-ply,SBD,M
Boys,109.77,6,Travion Freeman,Waco,104.96,140.61,86.18,163.29,390.09,Single-ply,SBD,M
Boys,109.77,7,Kenny Lizama,Waco University,107.23,145.15,86.18,158.76,390.09,Single-ply,SBD,M
Boys,109.77,8,Jonny Gardner #2,Waco University,103.24,138.35,92.99,149.69,381.02,Single-ply,SBD,M
Boys,109.77,DQ,Tavoon Uresti,Killeen Ellison,106.78,,,,,Single-ply,SBD,M
Boys,124.74,1,Jose Diaz #3,Teague,115.67,260.82,136.08,244.94,641.83,Single-ply,SBD,M
Boys,124.74,2,Marin Biletic,Killeen Ellison,121.11,204.12,156.49,226.8,587.4,Single-ply,SBD,M
Boys,124.74,3,Richard Carbajal,Waco,122.29,226.8,117.93,217.72,562.45,Single-ply,SBD,M
Boys,124.74,4,Thomas Turner,Waco University,121.65,226.8,133.81,179.17,539.77,Single-ply,SBD,M
Boys,124.74,5,Ryan Mitchell #2,Teague,114.4,192.78,124.74,206.38,523.9,Single-ply,SBD,M
Boys,124.74,6,Tyrone Newson,Killeen Shoemaker,124.65,215.46,111.13,190.51,517.1,Single-ply,SBD,M
Boys,124.74,7,Gabriel Vega,Waco University,117.66,208.65,97.52,188.24,494.42,Single-ply,SBD,M
Boys,124.74,8,Taylor Houten,Robinson,117.93,188.24,97.52,167.83,453.59,Single-ply,SBD,M
Boys,124.74,9,Jaquel Hardin,Waco,119.75,158.76,111.13,167.83,437.72,Single-ply,SBD,M
Boys,124.74,9,Jessi Edison,Killeen Shoemaker,123.65,192.78,120.2,156.49,469.47,Single-ply,SBD,M
Boys,124.74,10,Matt Joulart,Killeen Shoemaker,113.85,165.56,108.86,147.42,421.84,Single-ply,SBD,M
Boys,124.74,11,Joseph Gonzales,Waco,121.11,145.15,92.99,154.22,392.36,Single-ply,SBD,M
Boys,124.74+,1,Andrew Billings #1,Waco,142.7,317.51,215.46,272.16,805.13,Single-ply,SBD,M
Boys,124.74+,2,Ben Hughes,Waco University,146.24,297.1,181.44,294.84,773.37,Single-ply,SBD,M
Boys,124.74+,3,Shane Murphy,Robinson,163.2,278.96,204.12,231.33,714.41,Single-ply,SBD,M
Boys,124.74+,4,Alex Ellis #1,Teague,126.92,260.82,124.74,226.8,612.35,Single-ply,SBD,M
Boys,124.74+,5,Michael Bonilla,Waco University,136.89,233.6,133.81,217.72,585.13,Single-ply,SBD,M
Boys,124.74+,6,Marcus Robinson,Waco Connally,135.26,254.01,122.47,204.12,580.6,Single-ply,SBD,M
Boys,124.74+,7,Narisco Molina,Waco Connally,131.09,215.46,108.86,149.69,474,Single-ply,SBD,M
Boys,124.74+,8,James Harper,Waco,147.96,170.1,136.08,165.56,471.74,Single-ply,SBD,M
Boys,124.74+,10,Jabriel Hardin,Waco,128.55,145.15,97.52,154.22,396.89,Single-ply,SBD,M
Boys,124.74+,11,Mark Gurrola,Waco,127.55,120.2,58.97,136.08,315.25,Single-ply,SBD,M
Boys,124.74+,DQ,Devontae Neal,Waco,131.9,,,,,Single-ply,SBD,M
Boys,,NS,Marquis Mosley,Waco,,,,,,Single-ply,SBD,M
Boys,,NS,Anthony Borja,Killeen Ellison,,,,,,Single-ply,SBD,M
Boys,,NS,Sebastian Rodriguez,Killeen Ellison,,,,,,Single-ply,SBD,M
