Name,Age,WeightClassKg,Division,Sex,Equipment,Best3SquatKg,Best3BenchKg,Bench4Kg,Best3DeadliftKg,TotalKg,Event,Place
Larson,,56,40-44,F,Wraps,63.5,36.29,,81.65,181.44,SBD,1
Lynn Whidden,,56,45-49,F,Multi-ply,115.67,70.31,,127.01,312.98,SBD,1
Koley Hockeborn,,60,40-44,F,Wraps,115.67,92.99,,115.67,324.32,SBD,1
Maria Spano,,60,45-49,F,Wraps,74.84,47.63,,127.01,249.48,SBD,1
Denise Musser,,67.5,LT,F,Wraps,154.22,86.18,,158.76,399.16,SBD,1
Melissa Vega,,67.5,LT,F,Wraps,115.67,58.97,,158.76,333.39,SBD,2
Theodoropoulos,,82.5+,LT,F,Wraps,147.42,70.31,,165.56,383.29,SBD,1
McGee,,82.5+,40-44,F,Wraps,68.04,54.43,,127.01,249.48,SBD,1
Nathan Litowsky,,45.36,9-10,M,Wraps,40.82,24.95,,56.7,122.47,SBD,1
Bomberger,,52,11-12,M,Wraps,86.18,40.82,,77.11,204.12,SBD,1
Foltz,,52,11-12,M,Wraps,56.7,29.48,,77.11,163.29,SBD,2
McAvoy,,52,13-16,M,Multi-ply,120.2,86.18,,127.01,333.39,SBD,1
Molinaro,,60,JR,M,Multi-ply,163.29,102.06,,170.1,435.45,SBD,1
Eric Richardson #1,,67.5,13-16,M,Multi-ply,156.49,72.57,,181.44,410.5,SBD,1
Corsi,,67.5,45-49,M,Multi-ply,167.83,113.4,,204.12,485.34,SBD,1
Lance Klaassen,,75,13-16,M,Wraps,136.08,74.84,,149.69,360.61,SBD,1
Heilman,,75,17-19,M,Multi-ply,167.83,99.79,,185.97,453.59,SBD,1
Space #1,,75,17-19,M,Multi-ply,136.08,79.38,,188.24,403.7,SBD,2
Tony Dimura,,75,JR,M,Wraps,192.78,120.2,,219.99,532.97,SBD,1
Catrambone,,75,45-49,M,Wraps,147.42,117.93,,185.97,451.32,SBD,1
Gary Hoxworth,,75,55-59,M,Wraps,181.44,102.06,,226.8,510.29,SBD,1
Jack Wolff #1,,75,65-69,M,Multi-ply,131.54,86.18,,174.63,392.36,SBD,1
Space #1,,82.5,17-19,M,Multi-ply,179.17,104.33,,206.38,489.88,SBD,1
Jon Rock,,82.5,O,M,Wraps,215.46,142.88,,231.33,589.67,SBD,1
Joe Alongi,,82.5,LT,M,Multi-ply,183.71,165.56,,174.63,523.9,SBD,1
Frank Lombardo,,82.5,SM,M,Wraps,142.88,124.74,,190.51,458.13,SBD,1
Peter Catina,,82.5,40-44,M,Wraps,206.38,120.2,,208.65,535.24,SBD,1
Tom Cinelli,,82.5,50-54,M,Wraps,122.47,106.59,,154.22,383.29,SBD,1
Tom Conway,,82.5,55-59,M,Multi-ply,206.38,111.13,,244.94,562.46,SBD,1
Ray Dennison,,82.5,55-59,M,Multi-ply,195.04,106.59,,240.4,542.04,SBD,2
Tidy,,90,13-16,M,Multi-ply,161.03,61.24,,158.76,381.02,SBD,1
Nathaniel Kadle,,90,LT,M,Wraps,204.12,149.69,,254.01,607.81,SBD,1
Mangine,,90,LT,M,Wraps,215.46,158.76,,231.33,605.55,SBD,2
Seunarine,,90,LT,M,Wraps,235.87,136.08,,229.06,601.01,SBD,3
Weaver,,90,LT,M,Wraps,154.22,108.86,,183.71,446.79,SBD,4
Terry Edwards,,90,LT,M,Multi-ply,267.62,195.04,,249.48,712.14,SBD,1
Joe Ruscitelli,,90,LT,M,Multi-ply,251.74,195.04,,249.48,696.27,SBD,2
John Gorman,,90,LT,M,Multi-ply,226.8,158.76,,226.8,612.35,SBD,3
Floyd Givens,,90,LT,M,Multi-ply,235.87,172.37,,192.78,601.01,SBD,4
Joe Ruscitelli,,90,40-44,M,Multi-ply,251.74,195.04,,249.48,696.27,SBD,1
Rich Sadiv,40,90,40-44,M,Multi-ply,201.85,,,,,SBD,DQ
Wayne Kliefoth,,90,40-44,M,Wraps,244.94,142.88,,240.4,628.23,SBD,1
Floyd Givens,,90,50-54,M,Multi-ply,235.87,172.37,,192.78,601.01,SBD,1
Floyd Givens,,90,P/F/M,M,Multi-ply,235.87,172.37,,192.78,601.01,SBD,1
Boston,,100,JR,M,Multi-ply,242.67,170.1,,244.94,657.71,SBD,1
James Davis,,100,LT,M,Wraps,256.28,224.53,226.8,272.16,752.96,SBD,1
Chad Fleming #1,,100,LT,M,Wraps,256.28,170.1,,254.01,680.39,SBD,2
Bill Schaffer,,100,LT,M,Wraps,226.8,176.9,,217.72,621.42,SBD,3
Dan Caffrey,,100,LT,M,Wraps,204.12,136.08,,226.8,566.99,SBD,4
Aludauri,,100,LT,M,Wraps,249.48,192.78,,,,SBD,DQ
Chad Fleming #1,,100,O,M,Wraps,256.28,170.1,,254.01,680.39,SBD,1
Chris Loomis,,100,40-44,M,Multi-ply,158.76,117.93,,199.58,476.27,SBD,1
Ralph Brown,,100,50-54,M,Multi-ply,258.55,181.44,,231.33,671.32,SBD,1
Mike Bartos,,110,13-16,M,Multi-ply,249.48,147.42,,249.48,646.37,SBD,1
Hammond #3,,110,17-19,M,Wraps,208.65,151.95,,238.14,598.74,SBD,1
Paul Miller,,110,LT,M,Wraps,213.19,185.97,,247.21,646.37,SBD,1
John Perrotta,,110,LT,M,Multi-ply,306.18,181.44,,254.01,741.62,SBD,1
Joel Killen,,110,LT,M,Multi-ply,238.14,185.97,,226.8,650.91,SBD,2
Jeff Bradley #2,,110,40-44,M,Wraps,249.48,179.17,,238.14,666.78,SBD,1
Brad Lovejoy,,110,45-49,M,Multi-ply,260.82,185.97,,242.67,689.46,SBD,1
Reyes,,125,O,M,Multi-ply,285.76,170.1,,260.82,716.68,SBD,1
Yawn,,125+,LT,M,Multi-ply,276.69,181.44,,244.94,703.07,SBD,1
Teddy Theodoropoulos,,125+,LT,M,Multi-ply,272.16,183.71,,226.8,682.66,SBD,2
Yawn,,125+,SM,M,Multi-ply,276.69,181.44,,244.94,703.07,SBD,1
Yawn,,125+,P/F/M,M,Multi-ply,276.69,181.44,,244.94,703.07,SBD,1
Nancy Proctor,,56,45-49,F,Multi-ply,,65.77,,,65.77,B,1
Tracy Fitzpatrick,,56,17-19,F,Raw,,49.9,,,49.9,B,1
Koley Hockeborn,,60,O,F,Raw,,92.99,,,92.99,B,1
Koley Hockeborn,,60,40-44,F,Raw,,92.99,,,92.99,B,1
Maria Spano,,60,45-49,F,Raw,,47.63,,,47.63,B,1
Rosenthal,,67.5,40-44,F,Raw,,38.56,,,38.56,B,1
Kossak,,75,LT,F,Raw,,70.31,,,70.31,B,1
Diekel,,45.36,9-10,M,Raw,,36.29,,,36.29,B,1
Lewis #4,,52,9-10,M,Raw,,31.75,,,31.75,B,1
Claypatch,,56,17-19,M,Raw,,81.65,,,81.65,B,1
Jay Helms,,60,40-44,M,Multi-ply,,,,,,B,DQ
Clint Cawley,,67.5,13-16,M,Raw,,92.99,,,92.99,B,1
Clint Cawley,,67.5,13-16,M,Multi-ply,,113.4,,,113.4,B,1
Love,,67.5,O,M,Raw,,161.03,163.29,,161.03,B,1
Mosier,,67.5,O,M,Raw,,88.45,,,88.45,B,2
Dessau,,67.5,SM,M,Multi-ply,,122.47,,,122.47,B,1
Morrison,,67.5,55-59,M,Multi-ply,,99.79,,,99.79,B,1
Merabishvili,,75,JR,M,Raw,,102.06,,,102.06,B,1
Myers,,75,JR,M,Multi-ply,,92.99,,,92.99,B,1
Charles Venturella,,75,LT,M,Multi-ply,,158.76,,,158.76,B,1
Charles Venturella,,75,O,M,Multi-ply,,158.76,,,158.76,B,1
Charles Venturella,,75,40-44,M,Multi-ply,,158.76,,,158.76,B,1
Joe Caliguari,,75,40-44,M,Multi-ply,,145.15,,,145.15,B,2
Wayne Claypatch,,75,LT,M,Raw,,122.47,,,122.47,B,1
Bob Legg,,75,LT,M,Raw,,99.79,,,99.79,B,2
Ralph Lara,,75,SM,M,Raw,,136.08,,,136.08,B,1
Wooten,,75,50-54,M,Raw,,138.35,,,138.35,B,1
Bob Legg,,75,50-54,M,Raw,,99.79,,,99.79,B,2
Wayne Claypatch,,75,45-49,M,Raw,,122.47,,,122.47,B,1
Bruce Swanson,,82.5,13-16,M,Multi-ply,,124.74,,,124.74,B,1
Fabozzi,,82.5,17-19,M,Raw,,124.74,,,124.74,B,1
Snouffer,,82.5,17-19,M,Raw,,120.2,,,120.2,B,2
Leo Ryan,,82.5,LT,M,Multi-ply,,206.38,,,206.38,B,1
Mann,,82.5,LT,M,Multi-ply,,185.97,,,185.97,B,2
Massetti,,82.5,O,M,Raw,,149.69,,,149.69,B,1
Martin,,82.5,LT,M,Raw,,190.51,,,190.51,B,1
Mann,,82.5,40-44,M,Multi-ply,,185.97,,,185.97,B,1
Foltz,,82.5,40-44,M,Multi-ply,,145.15,,,145.15,B,2
Bill Ross,,82.5,SM,M,Raw,,158.76,,,158.76,B,1
John Kampo,,82.5,SM,M,Raw,,142.88,,,142.88,B,2
Stan Freed,,82.5,60-64,M,Raw,,147.42,,,147.42,B,1
Rudy Lozano,,82.5,65-69,M,Multi-ply,,124.74,,,124.74,B,1
Kemble,,90,17-19,M,Raw,,151.95,,,151.95,B,1
Turner,,90,17-19,M,Raw,,102.06,,,102.06,B,2
James Matta,,90,LT,M,Multi-ply,,181.44,,,181.44,B,1
Jachim,,90,LT,M,Multi-ply,,165.56,,,165.56,B,2
Swanson,,90,SM,M,Multi-ply,,,,,,B,DQ
Jachim,,90,40-44,M,Multi-ply,,165.56,,,165.56,B,1
Paul Dunn,,90,45-49,M,Multi-ply,,151.95,,,151.95,B,1
Charlie Williams #1,,90,45-49,M,Multi-ply,,136.08,,,136.08,B,2
Michael Churchman,,90,60-64,M,Raw,,,,,,B,DQ
Michael Churchman,,90,60-64,M,Multi-ply,,147.42,,,147.42,B,1
Burt Rosenfield,,90,70-74,M,Raw,,124.74,,,124.74,B,1
Burt Rosenfield,,90,70-74,M,Multi-ply,,138.35,,,138.35,B,1
Hafiz,,100,17-19,M,Raw,,140.61,,,140.61,B,1
Rogers #2,,100,17-19,M,Multi-ply,,147.42,,,147.42,B,1
John Feehan,,100,O,M,Multi-ply,,229.06,,,229.06,B,1
Tiger Sr,,100,O,M,Multi-ply,,204.12,,,204.12,B,2
Campanella,,100,O,M,Multi-ply,,201.85,,,201.85,B,3
Storey,,100,O,M,Multi-ply,,190.51,,,190.51,B,4
Ron Ehrhardt,,100,O,M,Multi-ply,,183.71,,,183.71,B,5
Diciano,,100,O,M,Multi-ply,,181.44,,,181.44,B,6
James Davis,,100,LT,M,Raw,,224.53,,,224.53,B,1
Dan Shaw,,100,LT,M,Raw,,206.38,,,206.38,B,2
Aludauri,,100,LT,M,Raw,,192.78,,,192.78,B,3
Dan Shaw,,100,SM,M,Raw,,206.38,,,206.38,B,1
Stalica,,100,SM,M,Raw,,185.97,,,185.97,B,2
Dan Caffrey,,100,SM,M,Raw,,136.08,,,136.08,B,3
Dan Shaw,,100,O,M,Raw,,206.38,,,206.38,B,1
Mellinger,,100,40-44,M,Multi-ply,,,,,,B,DQ
Ron Ehrhardt,,100,45-49,M,Multi-ply,,183.71,,,183.71,B,1
Tiger Sr,,100,50-54,M,Multi-ply,,204.12,,,204.12,B,1
Ralph Brown,,100,50-54,M,Multi-ply,,195.04,,,195.04,B,2
Roland Cote,,100,55-59,M,Raw,,195.04,,,195.04,B,1
Scott Shales,,100,55-59,M,Raw,,190.51,195.04,,190.51,B,2
Scott Shales,,100,55-59,M,Raw,,170.1,,,170.1,B,3
Chip Davis,,100,60-64,M,Multi-ply,,124.74,,,124.74,B,1
Jimmy Brown,,110,O,M,Multi-ply,,215.46,,,215.46,B,1
Wilkerson,,110,O,M,Multi-ply,,188.24,,,188.24,B,2
Jeff Anderson,,110,O,M,Multi-ply,,185.97,,,185.97,B,3
Jimmy Brown,,110,LT,M,Multi-ply,,215.46,,,215.46,B,1
Jmuhadze,,110,LT,M,Multi-ply,,190.51,,,190.51,B,2
Copenhaver,,110,LT,M,Multi-ply,,,,,,B,DQ
Joe Erb,,110,40-44,M,Raw,,149.69,,,149.69,B,1
Levine,,110,50-54,M,Raw,,142.88,,,142.88,B,1
Bill Bidinotto,,110,60-64,M,Raw,,136.08,,,136.08,B,1
Bill Bidinotto,,110,60-64,M,Multi-ply,,163.29,,,163.29,B,1
Stears,,110,P/F/M,M,Multi-ply,,195.04,,,195.04,B,1
Moody,,125,13-16,M,Raw,,95.25,,,95.25,B,1
Andrews #4,,125,17-19,M,Multi-ply,,,,,,B,DQ
Buddy Cawley,,125,LT,M,Multi-ply,,269.89,,,269.89,B,1
Bill Lewis,,125,LT,M,Multi-ply,,233.6,,,233.6,B,2
Kalfrin,,125,LT,M,Multi-ply,,,,,,B,DQ
Norris,,125,O,M,Multi-ply,,258.55,,,258.55,B,1
Allen,,125,SM,M,Multi-ply,,,,,,B,DQ
Mamedov,,125,LT,M,Raw,,208.65,,,208.65,B,1
Buddy Cawley,,125,40-44,M,Multi-ply,,269.89,,,269.89,B,1
Norris,,125,40-44,M,Multi-ply,,258.55,,,258.55,B,2
DuPont,,125,40-44,M,Multi-ply,,165.56,,,165.56,B,3
Ray Romero,,125,75-79,M,Raw,,61.24,,,61.24,B,1
Jmuhadze,,125+,LT,M,Multi-ply,,181.44,,,181.44,B,1
Shawn Lattimer,,125+,LT,M,Multi-ply,,,,,,B,DQ
Montano,,125+,LT,M,Raw,,181.44,,,181.44,B,1
Mackey,,125+,40-44,M,Multi-ply,,,,,,B,DQ
Irv Brown,,125+,45-49,M,Raw,,108.86,,,108.86,B,1
Maria Ferguson,,56,JR,F,Multi-ply,,,,176.9,176.9,D,1
Tracy Fitzpatrick,,56,17-19,F,Raw,,,,106.59,106.59,D,1
Hoxworth,,56,17-19,F,Raw,,,,86.18,86.18,D,2
Janelle Klaassen,,56,40-44,F,Raw,,,,117.93,117.93,D,1
Koley Hockeborn,,60,40-44,F,Raw,,,,115.67,115.67,D,1
Maria Spano,,60,45-49,F,Raw,,,,127.01,127.01,D,1
Diekel,,45.36,9-10,M,Raw,,,,83.91,83.91,D,1
Zambelli,,52,13-16,M,Raw,,,,81.65,81.65,D,1
Eric Richardson #1,,67.5,13-16,M,Multi-ply,,,,181.44,181.44,D,1
Gary Hoxworth,,67.5,13-16,M,Raw,,,,140.61,140.61,D,1
Erb,,75,13-16,M,Raw,,,,117.93,117.93,D,1
Space #1,,75,17-19,M,Multi-ply,,,,188.24,188.24,D,1
Merabishvili,,75,JR,M,Raw,,,,190.51,190.51,D,1
Myers,,75,JR,M,Raw,,,,142.88,142.88,D,2
Gary Hoxworth,,75,55-59,M,Raw,,,,226.8,226.8,D,1
Bob Legg,,75,50-54,M,Raw,,,,147.42,147.42,D,1
Bob Legg,,75,P/F/M,M,Raw,,,,147.42,147.42,D,1
Bob Legg,,75,LT,M,Raw,,,,147.42,147.42,D,1
Space #1,,82.5,17-19,M,Multi-ply,,,,206.38,206.38,D,1
Rijos-Soto,,82.5,LT,M,Raw,,,,260.82,260.82,D,1
Tom Conway,,82.5,55-59,M,Multi-ply,,,,244.94,244.94,D,1
Jenkins,,82.5,65-69,M,Raw,,,,226.8,226.8,D,1
James Matta,,90,LT,M,Multi-ply,,,,213.19,213.19,D,1
Jachim,,90,40-44,M,Multi-ply,,,,167.83,167.83,D,1
Tee Meyers,,90,45-49,M,Multi-ply,,,,333.39,333.39,D,1
Andy Skinner,,90,45-49,M,Raw,,,,231.33,231.33,D,1
Andy Skinner,,90,P/F/M,M,Raw,,,,231.33,231.33,D,1
Andy Skinner,,90,P/F/M,M,Multi-ply,,,,238.14,238.14,D,1
Dan Caffrey,,100,LT,M,Raw,,,,226.8,226.8,D,1
Scott Marshall,,100,LT,M,Raw,,,,204.12,204.12,D,2
Aludauri,,100,LT,M,Raw,,,,,,D,DQ
Roland Cote,,100,55-59,M,Multi-ply,,,,240.4,240.4,D,1
Andrew Finland,,110,JR,M,Raw,,,,240.4,240.4,D,1
Joe Erb,,110,40-44,M,Raw,,,,222.26,222.26,D,1
Jeff Anderson,,110,45-49,M,Multi-ply,,,,251.74,251.74,D,1
David Cooper #3,,110,O,M,Multi-ply,,,,319.78,319.78,D,1
Wilkerson,,110,O,M,Multi-ply,,,,204.12,204.12,D,2
Jim Dusenbury,,110,55-59,M,Multi-ply,,,,229.06,229.06,D,1
John Olaaje,,125,LT,M,Raw,,,,285.76,285.76,D,1
Terry O'Neill,,125,45-49,M,Multi-ply,,,,290.3,290.3,D,1
Teddy Finland,,125,45-49,M,Multi-ply,,,,,,D,DQ
Mackey,,125+,40-44,M,Multi-ply,,,,217.72,217.72,D,1
Irv Brown,,125+,45-49,M,Raw,,,,170.1,170.1,D,1
Shawn Lattimer,,125+,LT,M,Raw,,,,,,D,DQ
Koley Hockeborn,,60,40-44,F,Wraps,115.67,,,,115.67,S,1
Maria Spano,,60,45-49,F,Wraps,74.84,,,,74.84,S,1
Tom Cinelli,,82.5,50-54,M,Wraps,122.47,,,,122.47,S,1
Aludauri,,100,LT,M,Wraps,249.48,,,,249.48,S,1
Dan Caffrey,,100,LT,M,Wraps,204.12,,,,204.12,S,2
Nick Maltezos,,110,LT,M,Multi-ply,310.71,,,,310.71,S,1
Nick Maltezos,,110,O,M,Multi-ply,310.71,,,,310.71,S,1
Brad Lovejoy,,110,45-49,M,Multi-ply,260.82,,,,260.82,S,1
Terry O'Neill,,125,45-49,M,Multi-ply,299.37,,,,299.37,S,1
