Division,WeightClassKg,Place,Name,Team,BodyweightKg,Best3SquatKg,Best3BenchKg,Best3DeadliftKg,TotalKg,Equipment,Event,Sex,BirthDate
Boys,51.71,1,Sergio Perales,Midland Legacy,47.08,90.72,70.31,140.61,301.64,Single-ply,SBD,M,
Boys,55.79,1,Trey Jimenez,Sweetwater,54.43,136.08,70.31,142.88,349.27,Single-ply,SBD,M,
Boys,55.79,2,Aiden Trevino,Lamesa,54.16,113.4,45.36,136.08,294.84,Single-ply,SBD,M,
Boys,59.87,1,Caston Miller,Odessa Permian,56.79,129.27,92.99,165.56,387.82,Single-ply,SBD,M,
Boys,59.87,2,Cooper Cline,Snyder,58.79,142.88,63.5,131.54,337.93,Single-ply,SBD,M,
Boys,59.87,3,Shane Wiseman,Snyder,59.6,124.74,88.45,124.74,337.93,Single-ply,SBD,M,
Boys,59.87,4,Aiden Compton,San Angelo Central,56.7,83.91,56.7,90.72,231.33,Single-ply,SBD,M,
Boys,67.13,1,Eric Martinez,Sweetwater,65.59,213.19,122.47,183.7,519.36,Single-ply,SBD,M,
Boys,67.13,2,John Rivera,Snyder,66.68,208.65,97.52,210.92,517.1,Single-ply,SBD,M,
Boys,67.13,3,Luis Cabrera,Snyder,66.95,210.92,115.67,183.7,510.29,Single-ply,SBD,M,
Boys,67.13,4,John Willis,Midland Legacy,65.95,161.03,111.13,161.03,433.18,Single-ply,SBD,M,
Boys,67.13,5,Jeremiah Orosco,Snyder,64.41,181.44,77.11,167.83,426.38,Single-ply,SBD,M,
Boys,67.13,6,Chandler Tran,Snyder,62.51,156.49,95.25,165.56,417.3,Single-ply,SBD,M,
Boys,67.13,7,Gabriel Ives,Midland Legacy,64.23,151.95,88.45,151.95,392.36,Single-ply,SBD,M,
Boys,67.13,8,Jacob Casarez,Lamesa,67.04,142.88,83.91,158.76,385.55,Single-ply,SBD,M,
Boys,67.13,9,Victor Aguirre,San Angelo Lake View,67.13,136.08,90.72,136.08,362.87,Single-ply,SBD,M,
Boys,67.13,10,Angel Salazar,San Angelo Lake View,65.5,120.2,88.45,151.95,360.61,Single-ply,SBD,M,
Boys,67.13,11,Diego Vidaurre,Lamesa,66.5,136.08,70.31,151.95,358.34,Single-ply,SBD,M,
Boys,67.13,12,Levi Muncy,Roscoe Highland,62.87,142.88,77.11,136.08,356.07,Single-ply,SBD,M,
Boys,67.13,13,Calixto Mendez,Sweetwater,65.68,129.27,77.11,142.88,349.27,Single-ply,SBD,M,
Boys,67.13,14,Ayden Robinson,San Angelo Lake View,66.04,124.74,81.65,127.01,333.39,Single-ply,SBD,M,
Boys,67.13,15,Atre Allen,San Angelo Central,62.51,124.74,77.11,129.27,331.12,Single-ply,SBD,M,
Boys,67.13,16,Damien Davis,San Angelo Lake View,64.41,111.13,74.84,129.27,315.25,Single-ply,SBD,M,
Boys,67.13,17,David Ruiz,San Angelo Central,66.5,113.4,65.77,136.08,315.25,Single-ply,SBD,M,
Boys,67.13,18,Jonah Skaggs,San Angelo Lake View,64.5,106.59,77.11,113.4,297.1,Single-ply,SBD,M,
Boys,74.84,1,Jacob Paredes,Odessa Permian,71.49,174.63,115.67,219.99,510.29,Single-ply,SBD,M,
Boys,74.84,2,Dakota Davis,Odessa Permian,70.58,183.7,113.4,197.31,494.42,Single-ply,SBD,M,
Boys,74.84,3,Nicholas Perez,San Angelo Central,68.49,158.76,90.72,199.58,449.06,Single-ply,SBD,M,
Boys,74.84,4,Jay Castillo,Snyder,74.57,161.03,99.79,170.1,430.91,Single-ply,SBD,M,
Boys,74.84,5,Luis Chavez,Odessa Permian,70.31,151.95,111.13,158.76,421.84,Single-ply,SBD,M,
Boys,74.84,6,Bailey Jowers,San Angelo Central,68.95,136.08,88.45,156.49,381.02,Single-ply,SBD,M,
Boys,74.84,7,Daenin Smith,Snyder,74.75,142.88,83.91,154.22,381.02,Single-ply,SBD,M,
Boys,74.84,8,Darius Harvatin,San Angelo Central,70.58,136.08,70.31,161.03,367.41,Single-ply,SBD,M,
Boys,74.84,9,Adrian Perez,Odessa Permian,73.75,129.27,83.91,117.93,331.12,Single-ply,SBD,M,
Boys,82.1,1,Ethan Brockman,Sweetwater,81.47,204.12,122.47,213.19,539.77,Single-ply,SBD,M,
Boys,82.1,2,Quay Lloyd,Roscoe Highland,78.38,131.54,90.72,183.7,405.97,Single-ply,SBD,M,
Boys,82.1,3,Caleb Carrol,Odessa Permian,76.2,111.13,111.13,151.95,374.21,Single-ply,SBD,M,
Boys,89.81,1,Cedrick Brown,Sweetwater,84.1,204.12,124.74,226.8,555.65,Single-ply,SBD,M,
Boys,89.81,2,Ngai Thang,Midland Legacy,83.37,208.65,131.54,208.65,548.85,Single-ply,SBD,M,
Boys,89.81,3,Xander Richardson,Snyder,88.18,215.46,120.2,204.12,539.77,Single-ply,SBD,M,
Boys,89.81,4,Omar Ramos,Odessa Permian,86.36,174.63,120.2,183.7,478.54,Single-ply,SBD,M,
Boys,89.81,5,Victor Ramirez,Odessa Permian,89.54,174.63,129.27,170.1,474,Single-ply,SBD,M,
Boys,89.81,6,Felipe Ramirez,Midland Legacy,83.37,147.42,99.79,158.76,405.97,Single-ply,SBD,M,
Boys,89.81,7,Auston Jahn,Snyder,89.72,151.95,83.91,151.95,387.82,Single-ply,SBD,M,
Boys,99.79,1,Reyes Silva,Snyder,97.07,340.19,174.63,272.16,786.98,Single-ply,SBD,M,
Boys,99.79,2,Kreed Turney,Roscoe Highland,96.16,204.12,136.08,226.8,566.99,Single-ply,SBD,M,
Boys,99.79,3,Caleb Lee,Sweetwater,93.89,192.78,120.2,183.7,496.68,Single-ply,SBD,M,
Boys,99.79,4,Justin Vasquez,Lamesa,96.07,149.69,77.11,156.49,383.29,Single-ply,SBD,M,
Boys,99.79,5,Xavier Rangel,San Angelo Lake View,98.61,133.81,104.33,145.15,383.29,Single-ply,SBD,M,
Boys,109.77,1,Jaylon James,Snyder,107.23,272.16,145.15,210.92,628.23,Single-ply,SBD,M,
Boys,109.77,2,Ely Barrera,Sweetwater,108.77,226.8,127.01,260.82,614.62,Single-ply,SBD,M,
Boys,109.77,3,Nate Bennett,Roscoe Highland,103.51,201.85,124.74,215.46,542.04,Single-ply,SBD,M,
Boys,109.77,4,Alex Alcantar,San Angelo Lake View,106.59,210.92,124.74,190.51,526.17,Single-ply,SBD,M,
Boys,109.77,5,Bren Dyess,Midland Legacy,105.96,181.44,136.08,179.17,496.68,Single-ply,SBD,M,
Boys,109.77,6,Christian Reyes,Midland Legacy,101.79,190.51,102.06,190.51,483.08,Single-ply,SBD,M,
Boys,109.77,7,Isaac Cordova,San Angelo Lake View,101.15,176.9,106.59,188.24,471.74,Single-ply,SBD,M,
Boys,109.77,8,Tate Cain,Roscoe Highland,102.69,138.35,113.4,192.78,444.52,Single-ply,SBD,M,
Boys,109.77,9,Francisco Sanchez,Odessa Permian,108.91,170.1,95.25,170.1,435.45,Single-ply,SBD,M,
Boys,124.74,1,Juan Ortiz,San Angelo Lake View,123.92,269.89,167.83,258.55,696.26,Single-ply,SBD,M,
Boys,124.74,2,Noel Mekogue,Sweetwater,124.1,204.12,142.88,269.89,616.89,Single-ply,SBD,M,
Boys,124.74,3,Desmond Hill,Odessa Permian,110.68,226.8,147.42,206.38,580.6,Single-ply,SBD,M,
Boys,124.74,4,Willie Rodriguez,San Angelo Lake View,123.29,217.72,161.03,192.78,571.53,Single-ply,SBD,M,
Boys,124.74,5,Vance Martinez,Snyder,115.3,215.46,115.67,201.85,532.97,Single-ply,SBD,M,
Boys,124.74,6,Girevis Bobey,Midland Legacy,116.66,192.78,158.76,181.44,532.97,Single-ply,SBD,M,
Boys,124.74,7,Angelo Ortiz,Midland Legacy,110.31,188.24,117.93,172.37,478.54,Single-ply,SBD,M,
Boys,124.74,8,Lucas Barrientes,Midland Legacy,112.85,192.78,108.86,163.29,464.93,Single-ply,SBD,M,
Boys,124.74,9,Bryan Guynes,San Angelo Central,119.02,49.9,58.97,113.4,222.26,Single-ply,SBD,M,
Boys,139.71,1,Aden Hernandez,Snyder,128.09,226.8,170.1,215.46,612.35,Single-ply,SBD,M,
Boys,139.71,2,John Cepeda,San Angelo Lake View,126.19,204.12,133.81,179.17,517.1,Single-ply,SBD,M,
Boys,139.71+,1,Gage Balthrop,Roscoe Highland,163.29,204.12,102.06,206.38,512.56,Single-ply,SBD,M,
