Division,WeightClassKg,Place,Name,Team,BodyweightKg,Best3SquatKg,Best3BenchKg,Best3DeadliftKg,TotalKg,Equipment,Event,Sex
Boys,51.71,1,Haif Martinez,Lewisville The Colony,50.58,156.49,95.25,156.49,408.23,Single-ply,SBD,M
Boys,51.71,2,JT White,Cedar Hill,51.71,138.35,63.5,151.95,353.8,Single-ply,SBD,M
Boys,55.79,3,Donovan Hayes,Frisco Centennial,51.8,136.08,61.23,122.47,319.78,Single-ply,SBD,M
Boys,51.71,4,Victor Peluso,Frisco Wakeland,50.8,108.86,90.72,113.4,312.98,Single-ply,SBD,M
Boys,51.71,5,Toni Ogunsola,Frisco,49.99,111.13,65.77,124.74,301.64,Single-ply,SBD,M
Boys,51.71,6,Axel Banks,Denison,49.44,92.99,61.23,90.72,244.94,Single-ply,SBD,M
Boys,51.71,7,Blake Weaver,Frisco Heritage,45.99,68.04,40.82,74.84,183.7,Single-ply,SBD,M
Boys,59.87,1,Carlos Bravo,Lewisville The Colony,55.97,174.63,92.99,176.9,444.52,Single-ply,SBD,M
Boys,55.79,1,Demitri Sommer,Lewisville The Colony,55.07,151.95,72.57,154.22,378.75,Single-ply,SBD,M
Boys,55.79,2,Allan Morales,Frisco Centennial,55.34,185.97,70.31,174.63,430.91,Single-ply,SBD,M
Boys,55.79,3,Sydney McIntosh,Sherman,54.79,147.42,83.91,165.56,396.89,Single-ply,SBD,M
Boys,55.79,4,Stephen Nelson,Denison,55.7,140.61,79.38,149.69,369.68,Single-ply,SBD,M
Boys,55.79,5,Chris Hernandez,Duncanville,54.34,115.67,74.84,154.22,344.73,Single-ply,SBD,M
Boys,55.79,6,Brandon Kaprelian,Coppell,55.7,120.2,74.84,129.27,324.32,Single-ply,SBD,M
Boys,55.79,7,Dongchan Kim,Frisco,55.16,140.61,68.04,113.4,322.05,Single-ply,SBD,M
Boys,55.79,8,Aditya Misra,Oakridge School,55.52,115.67,56.7,124.74,297.1,Single-ply,SBD,M
Boys,55.79,9,Kaleb Fuller,Nocona,53.8,106.59,54.43,111.13,272.16,Single-ply,SBD,M
Boys,59.87,1,Sonny Khokar,Frisco Wakeland,58.33,201.85,115.67,215.46,532.97,Single-ply,SBD,M
Boys,67.13,2,Richard Hernandez,Lewisville The Colony,60.1,208.65,120.2,195.04,523.9,Single-ply,SBD,M
Boys,67.13,3,Stefan Sommer,Lewisville The Colony,60.1,217.72,99.79,176.9,494.42,Single-ply,SBD,M
Boys,59.87,4,Larkin Alexander,Waxahachie,59.6,174.63,102.06,188.24,464.93,Single-ply,SBD,M
Boys,59.87,5,Daniel Cadena,Waxahachie,59.6,147.42,81.65,165.56,394.63,Single-ply,SBD,M
Boys,59.87,6,Brad Crudup,Oakridge School,59.69,136.08,72.57,167.83,376.48,Single-ply,SBD,M
Boys,59.87,7,Grey Berry,Whitewright,59.87,140.61,70.31,138.35,349.27,Single-ply,SBD,M
Boys,59.87,8,Nick Baril,Frisco Centennial,58.97,133.81,81.65,131.54,347,Single-ply,SBD,M
Boys,59.87,9,Mason Thompson,Whitewright,58.24,136.08,68.04,136.08,340.19,Single-ply,SBD,M
Boys,59.87,10,Ben Spruiell,Nocona,57.52,92.99,63.5,136.08,292.57,Single-ply,SBD,M
Boys,59.87,11,A Lalani,Dallas Parish Episcopal,59.69,108.86,61.23,122.47,292.57,Single-ply,SBD,M
Boys,67.13,12,Cj Isley,Whitewright,60.1,102.06,61.23,124.74,288.03,Single-ply,SBD,M
Boys,59.87,DQ,Nathaniel Williams,Bishop Lynch,59.87,,,,,Single-ply,SBD,M
Boys,74.84,1,Andrew Beckman,Lewisville The Colony,67.36,254.01,158.76,224.53,637.3,Single-ply,SBD,M
Boys,67.13,2,Tim Sanders,Lewisville The Colony,66.36,226.8,115.67,185.97,528.44,Single-ply,SBD,M
Boys,67.13,3,Stanley Lu,Frisco Centennial,64.95,181.44,113.4,195.04,489.88,Single-ply,SBD,M
Boys,67.13,4,Tyrone Crawford,Waxahachie,66.5,163.29,108.86,188.24,460.4,Single-ply,SBD,M
Boys,67.13,5,Joseph Ogunniyi,Cedar Hill,65.95,167.83,81.65,195.04,444.52,Single-ply,SBD,M
Boys,74.84,6,Robert Cooper,Whitewright,67.31,145.15,95.25,195.04,435.45,Single-ply,SBD,M
Boys,67.13,7,Austin Turturro,Frisco Liberty,66.86,181.44,111.13,140.61,433.18,Single-ply,SBD,M
Boys,74.84,8,Ryan Schoenberg,Frisco Wakeland,67.31,170.1,88.45,174.63,433.18,Single-ply,SBD,M
Boys,67.13,9,Matt Mars,Little Elm,65.23,161.03,102.06,167.83,430.91,Single-ply,SBD,M
Boys,74.84,10,Nate Jones,Lewisville The Colony,67.18,172.37,95.25,158.76,426.38,Single-ply,SBD,M
Boys,67.13,11,Kelton Specks,Cedar Hill,61.6,174.63,97.52,145.15,417.3,Single-ply,SBD,M
Boys,67.13,12,Pat White,Lewisville The Colony,64.95,172.37,70.31,174.63,417.3,Single-ply,SBD,M
Boys,67.13,13,Chris Gautier,Frisco Centennial,65.32,158.76,86.18,145.15,390.09,Single-ply,SBD,M
Boys,67.13,14,Bradley Beck,McKinney,63.14,145.15,86.18,156.49,387.82,Single-ply,SBD,M
Boys,67.13,15,Taylor Ross,Nocona,60.42,142.88,86.18,151.95,381.02,Single-ply,SBD,M
Boys,74.84,16,Kenny Watson,Whitewright,67.22,140.61,92.99,142.88,376.48,Single-ply,SBD,M
Boys,67.13,17,Maurico Puebla,Dallas Parish Episcopal,65.5,151.95,81.65,136.08,369.68,Single-ply,SBD,M
Boys,67.13,18,A. Robertson,Plano John Paul II,63.96,142.88,74.84,142.88,360.61,Single-ply,SBD,M
Boys,67.13,19,Christian Byers,Bishop Lynch,61.6,124.74,68.04,149.69,342.46,Single-ply,SBD,M
Boys,67.13,20,Cameron Peters,Frisco Centennial,62.78,129.27,72.57,133.81,335.66,Single-ply,SBD,M
Boys,67.13,21,Grant Swenke,Bishop Lynch,63.32,113.4,72.57,136.08,322.05,Single-ply,SBD,M
Boys,67.13,22,Aaron Decker,Whitewright,60.96,117.93,70.31,127.01,315.25,Single-ply,SBD,M
Boys,74.84,23,A Peabody,Plano John Paul II,67.31,120.2,65.77,113.4,299.37,Single-ply,SBD,M
Boys,74.84,DQ,Andrew Gonzalez,Lewisville The Colony,67.36,170.1,86.18,158.76,,Single-ply,SBD,M
Boys,67.13,DQ,Errol Cox,Lewisville The Colony,66.77,167.83,72.57,174.63,,Single-ply,SBD,M
Boys,67.13,DQ,Tanaka Rusape,Lewisville The Colony,62.6,147.42,61.23,158.76,,Single-ply,SBD,M
Boys,67.13,DQ,Jafus Johnson,Cedar Hill,65.77,176.9,99.79,,,Single-ply,SBD,M
Boys,67.13,DQ,Kenny Chance,Waxahachie,61.6,133.81,88.45,,,Single-ply,SBD,M
Boys,74.84,1,Cory Sayler,Lewisville The Colony,74.03,249.48,154.22,226.8,630.49,Single-ply,SBD,M
Boys,74.84,2,Jackie Jenkins,Cedar Hill,74.84,201.85,113.4,190.51,505.76,Single-ply,SBD,M
Boys,74.84,3,Armani Edwards,Frisco Liberty,73.21,208.65,113.4,165.56,487.61,Single-ply,SBD,M
Boys,74.84,4,Tranealius Spruiell,Cedar Hill,71.58,185.97,90.72,204.12,480.81,Single-ply,SBD,M
Boys,74.84,5,Matt Munoz,McKinney,74.57,190.51,108.86,181.44,480.81,Single-ply,SBD,M
Boys,74.84,6,Cameron Williams #10,Sherman,74.39,170.1,104.33,195.04,469.47,Single-ply,SBD,M
Boys,74.84,7,Zach Daniel,Denison,67.77,183.7,88.45,195.04,467.2,Single-ply,SBD,M
Boys,74.84,8,Cameron Nichols,Little Elm,74.57,185.97,120.2,154.22,460.4,Single-ply,SBD,M
Boys,82.1,9,Vincent Chavez,Frisco Centennial,75.02,199.58,108.86,142.88,451.32,Single-ply,SBD,M
Boys,82.1,10,Aaron Harwell,Cedar Hill,75.02,167.83,92.99,181.44,442.25,Single-ply,SBD,M
Boys,74.84,11,Ace Clean,Bishop Lynch,71.67,172.37,95.25,165.56,433.18,Single-ply,SBD,M
Boys,74.84,12,Jarred Askins,Frisco,71.58,181.44,102.06,145.15,428.64,Single-ply,SBD,M
Boys,74.84,13,Brad Sargent,Bishop Lynch,72.67,149.69,90.72,185.97,426.38,Single-ply,SBD,M
Boys,74.84,14,Josh Pantoga,Bishop Lynch,70.22,161.03,74.84,181.44,417.3,Single-ply,SBD,M
Boys,74.84,15,Nathan James,Sherman,71.67,149.69,106.59,161.03,417.3,Single-ply,SBD,M
Boys,74.84,16,Lucas D'Agostino,Oakridge School,71.85,174.63,79.38,158.76,412.77,Single-ply,SBD,M
Boys,74.84,17,Travis Barnes,Frisco,72.3,147.42,90.72,174.63,412.77,Single-ply,SBD,M
Boys,74.84,18,Ross Abraham,Frisco Centennial,74.12,156.49,86.18,165.56,408.23,Single-ply,SBD,M
Boys,74.84,19,Simon Chan,Lewisville The Colony,70.35,165.56,95.25,145.15,405.97,Single-ply,SBD,M
Boys,74.84,20,Brandon Wade,Little Elm,72.76,154.22,99.79,149.69,403.7,Single-ply,SBD,M
Boys,74.84,21,Christian Han,Coppell,73.75,163.29,77.11,156.49,396.89,Single-ply,SBD,M
Boys,74.84,22,Isaiah Hines,Cedar Hill,68.49,133.81,86.18,161.03,381.02,Single-ply,SBD,M
Boys,74.84,23,Logan Miller,Frisco Centennial,71.03,120.2,79.38,174.63,374.21,Single-ply,SBD,M
Boys,74.84,24,Juan Washington,Frisco Heritage,68.49,136.08,77.11,127.01,340.19,Single-ply,SBD,M
Boys,74.84,25,Dylan Murray,Whitewright,67.59,122.47,77.11,127.01,326.59,Single-ply,SBD,M
Boys,74.84,26,Don Rhoades,Whitewright,67.68,111.13,83.91,122.47,317.51,Single-ply,SBD,M
Boys,74.84,DQ,Mark Sanchez,Lewisville The Colony,70.31,113.4,77.11,129.27,,Single-ply,SBD,M
Boys,74.84,DQ,Aaron McCarthy,Lewisville The Colony,68.04,158.76,90.72,185.97,,Single-ply,SBD,M
Boys,74.84,DQ,Collin Olsen,Lewisville The Colony,72.21,145.15,83.91,158.76,,Single-ply,SBD,M
Boys,82.1,DQ,Brennon Kline,Lewisville The Colony,74.89,145.15,79.38,174.63,,Single-ply,SBD,M
Boys,74.84,DQ,Franklin Perdomo,Lewisville The Colony,68.49,,,,,Single-ply,SBD,M
Boys,82.1,1,Justin Murphy,Lewisville The Colony,81.51,263.08,147.42,235.87,646.37,Single-ply,SBD,M
Boys,82.1,2,Tanner Haynie,Lewisville The Colony,79.06,263.08,113.4,226.8,603.28,Single-ply,SBD,M
Boys,82.1,3,Austin Arnold,Denison,81.83,201.85,154.22,217.72,573.79,Single-ply,SBD,M
Boys,82.1,4,Trez Robinson,Frisco Wakeland,81.56,215.46,127.01,219.99,562.45,Single-ply,SBD,M
Boys,82.1,5,Cody Montgomery,McKinney,79.56,204.12,124.74,231.33,560.19,Single-ply,SBD,M
Boys,82.1,6,Lakelon Rice,Frisco Centennial,78.47,204.12,122.47,192.78,519.36,Single-ply,SBD,M
Boys,82.1,7,ShaCody Williams,Sherman,77.56,195.04,117.93,204.12,517.1,Single-ply,SBD,M
Boys,82.1,8,Craig Renfro,Waxahachie,77.02,197.31,102.06,208.65,508.02,Single-ply,SBD,M
Boys,82.1,9,Diego Rosales,Fort Worth Trimble Tech,76.2,181.44,102.06,190.51,474,Single-ply,SBD,M
Boys,82.1,10,Mac Fitzgerald,Frisco Centennial,81.01,183.7,102.06,188.24,474,Single-ply,SBD,M
Boys,82.1,11,Logan Matamoros,Frisco Centennial,79.83,158.76,120.2,172.37,451.32,Single-ply,SBD,M
Boys,82.1,12,Jordan Green #6,Fort Worth Trimble Tech,76.02,179.17,88.45,176.9,444.52,Single-ply,SBD,M
Boys,89.81,13,A Harbert,Plano John Paul II,82.28,151.95,102.06,181.44,435.45,Single-ply,SBD,M
Boys,89.81,14,Jm Charles,Frisco Heritage,82.28,172.37,99.79,163.29,435.45,Single-ply,SBD,M
Boys,82.1,15,Omar Garcia,Lewisville,77.38,158.76,83.91,185.97,428.64,Single-ply,SBD,M
Boys,82.1,16,Daniel Tacket,Cedar Hill,78.47,142.88,108.86,138.35,390.09,Single-ply,SBD,M
Boys,82.1,17,Conner Lane,Frisco Centennial,79.74,145.15,86.18,145.15,376.48,Single-ply,SBD,M
Boys,82.1,18,Jon Le,Frisco Centennial,75.84,147.42,79.38,145.15,371.95,Single-ply,SBD,M
Boys,82.1,19,Jk Barbers,Frisco Heritage,80.01,142.88,74.84,131.54,349.27,Single-ply,SBD,M
Boys,82.1,DQ,Trey Young,Lewisville The Colony,78.65,136.08,65.77,163.29,,Single-ply,SBD,M
Boys,82.1,DQ,Anthony Rivera,Lewisville The Colony,79.38,136.08,79.38,151.95,,Single-ply,SBD,M
Boys,89.81,DQ,Frankie Miranda,Lewisville The Colony,82.33,102.06,56.7,124.74,,Single-ply,SBD,M
Boys,82.1,DQ,Brad Waggoner,Lewisville The Colony,79.38,138.35,63.5,147.42,,Single-ply,SBD,M
Boys,82.1,DQ,Mike Denton,Lewisville The Colony,81.19,215.46,92.99,210.92,,Single-ply,SBD,M
Boys,82.1,DQ,Blake Kozeny,Frisco Liberty,81.47,254.01,131.54,,,Single-ply,SBD,M
Boys,82.1,DQ,Caiden Fenoglio,Nocona,82.01,,,,,Single-ply,SBD,M
Boys,89.81,1,Tanner Anglin,Frisco Centennial,89.18,226.8,142.88,249.48,619.15,Single-ply,SBD,M
Boys,89.81,2,Dillon Bocanegra,Little Elm,83.82,244.94,140.61,226.8,612.35,Single-ply,SBD,M
Boys,89.81,3,Aaron Bailey,Frisco Wakeland,87.82,224.53,129.27,217.72,571.53,Single-ply,SBD,M
Boys,89.81,4,Nick Sprenger,Sherman,88.45,208.65,161.03,195.04,564.72,Single-ply,SBD,M
Boys,99.79,5,Spencer McDuffy,Frisco Liberty,89.99,226.8,129.27,188.24,544.31,Single-ply,SBD,M
Boys,89.81,6,Robert Lowe,Cedar Hill,86.18,204.12,120.2,217.72,542.04,Single-ply,SBD,M
Boys,99.79,7,Corbin Boettger,Denison,89.99,215.46,117.93,208.65,542.04,Single-ply,SBD,M
Boys,99.79,8,Chris Roberts,Cedar Hill,89.99,206.38,142.88,188.24,537.51,Single-ply,SBD,M
Boys,89.81,9,Matthew Scarborough,Oakridge School,83.73,195.04,120.2,208.65,523.9,Single-ply,SBD,M
Boys,89.81,10,Kevin Gutierrez,Bishop Lynch,83.1,206.38,90.72,170.1,467.2,Single-ply,SBD,M
Boys,89.81,11,Junior Morris,Lewisville,88.9,188.24,99.79,165.56,453.59,Single-ply,SBD,M
Boys,89.81,12,Efe Nesiama,Coppell,83.37,165.56,97.52,176.9,439.98,Single-ply,SBD,M
Boys,89.81,13,Chris Hendricks,Frisco Wakeland,84.01,161.03,90.72,183.7,435.45,Single-ply,SBD,M
Boys,89.81,14,A Browder,Plano John Paul II,88.9,161.03,97.52,154.22,412.77,Single-ply,SBD,M
Boys,89.81,15,Cameron Davis #6,Bishop Lynch,88.36,156.49,72.57,136.08,365.14,Single-ply,SBD,M
Boys,89.81,16,Steven Obiselu,Frisco Heritage,82.74,136.08,70.31,131.54,337.93,Single-ply,SBD,M
Boys,99.79,17,Grant Johnson,Oakridge School,89.99,117.93,58.97,136.08,312.98,Single-ply,SBD,M
Boys,89.81,18,Lohit Adusumilli,Frisco Heritage,88.27,102.06,63.5,111.13,276.69,Single-ply,SBD,M
Boys,89.81,19,Eric Ramon,Bishop Lynch,88.36,106.59,47.63,108.86,263.08,Single-ply,SBD,M
Boys,89.81,DQ,Edgar Reyes,Lewisville The Colony,88.5,131.54,74.84,145.15,,Single-ply,SBD,M
Boys,99.79,DQ,Sir Wells,Lewisville The Colony,90.04,226.8,102.06,215.46,,Single-ply,SBD,M
Boys,89.81,DQ,Nick Sepper,Frisco Wakeland,85.09,165.56,,,,Single-ply,SBD,M
Boys,99.79,DQ,Seth Gamez,Fort Worth Trimble Tech,89.99,204.12,90.72,,,Single-ply,SBD,M
Boys,89.81,DQ,Trevon Ealy,Waxahachie,87.63,181.44,,,,Single-ply,SBD,M
Boys,99.79,1,Reggie Wilcox,Frisco Wakeland,98.52,267.62,158.76,267.62,694,Single-ply,SBD,M
Boys,99.79,2,Xavier Warren,Cedar Hill,98.97,254.01,131.54,238.14,623.69,Single-ply,SBD,M
Boys,99.79,3,Darius Stubblefield,Cedar Hill,98.7,233.6,147.42,240.4,621.42,Single-ply,SBD,M
Boys,99.79,4,Brandon January,Dallas Parish Episcopal,91.9,226.8,145.15,238.14,610.08,Single-ply,SBD,M
Boys,99.79,5,Milton Ricks,Lewisville,94.17,238.14,117.93,251.74,607.81,Single-ply,SBD,M
Boys,99.79,6,Terry Owens,Fort Worth Trimble Tech,99.79,231.33,145.15,231.33,607.81,Single-ply,SBD,M
Boys,99.79,7,Bryan Randall,Waxahachie,96.25,224.53,140.61,235.87,601.01,Single-ply,SBD,M
Boys,99.79,8,Robert Gay,Sherman,99.16,235.87,115.67,247.21,598.74,Single-ply,SBD,M
Boys,99.79,9,Derek Lanham,Lewisville The Colony,91.63,244.94,108.86,210.92,564.72,Single-ply,SBD,M
Boys,109.77,10,David Miller #7,Little Elm,99.88,213.19,136.08,215.46,564.72,Single-ply,SBD,M
Boys,99.79,11,Chad Pennywell,Frisco Wakeland,99.79,226.8,136.08,197.31,560.19,Single-ply,SBD,M
Boys,99.79,12,Rene Zavala,Waxahachie,93.62,213.19,140.61,204.12,557.92,Single-ply,SBD,M
Boys,99.79,13,Taylor Robinson,Whitewright,91.35,206.38,138.35,208.65,553.38,Single-ply,SBD,M
Boys,99.79,14,Corey Feagin,Cedar Hill,97.52,204.12,136.08,208.65,548.85,Single-ply,SBD,M
Boys,99.79,15,Freddy Hernandez #2,Little Elm,92.26,195.04,129.27,222.26,546.58,Single-ply,SBD,M
Boys,99.79,16,Adam Borne,Frisco Liberty,93.89,197.31,129.27,192.78,519.36,Single-ply,SBD,M
Boys,99.79,17,Clay Eppler,Denison,98.88,190.51,124.74,201.85,517.1,Single-ply,SBD,M
Boys,99.79,18,Axel DeLeon,Little Elm,99.16,222.26,104.33,185.97,512.56,Single-ply,SBD,M
Boys,99.79,19,Michael Quast,Coppell,92.8,185.97,138.35,181.44,505.76,Single-ply,SBD,M
Boys,99.79,20,Derek Gourley,Frisco,91.81,183.7,117.93,199.58,501.22,Single-ply,SBD,M
Boys,99.79,21,Tony Dwyer,Bishop Lynch,94.26,188.24,104.33,192.78,485.34,Single-ply,SBD,M
Boys,99.79,22,Isaiah Hinton,Lewisville The Colony,95.25,199.58,99.79,185.97,485.34,Single-ply,SBD,M
Boys,99.79,23,William Udeh,Coppell,97.7,174.63,120.2,174.63,469.47,Single-ply,SBD,M
Boys,99.79,24,Gerry Gallimore,Duncanville,95.98,195.04,102.06,154.22,451.32,Single-ply,SBD,M
Boys,99.79,25,Marc Sartain,Frisco,95.35,170.1,92.99,181.44,444.52,Single-ply,SBD,M
Boys,99.79,26,Jeff Wood,Denison,98.16,183.7,108.86,145.15,437.72,Single-ply,SBD,M
Boys,99.79,27,Mike Rineheart,Bishop Lynch,95.89,163.29,81.65,185.97,430.91,Single-ply,SBD,M
Boys,99.79,28,Tanner Caskaddon,Frisco Heritage,95.25,154.22,92.99,170.1,417.3,Single-ply,SBD,M
Boys,99.79,29,Blake Dehorney,Sherman,97.52,158.76,95.25,145.15,399.16,Single-ply,SBD,M
Boys,99.79,30,Ethan Young,Bishop Lynch,96.98,170.1,81.65,138.35,390.09,Single-ply,SBD,M
Boys,99.79,31,Logan White,Frisco Heritage,98.25,142.88,88.45,149.69,381.02,Single-ply,SBD,M
Boys,99.79,32,A Llop,Plano John Paul II,95.25,129.27,88.45,151.95,369.68,Single-ply,SBD,M
Boys,99.79,DQ,Nacho Ramos,Lewisville The Colony,93.03,147.42,72.57,167.83,,Single-ply,SBD,M
Boys,99.79,DQ,David Kennedy,Oakridge School,93.44,,,,,Single-ply,SBD,M
Boys,99.79,DQ,Reid Berry,Dallas Parish Episcopal,94.35,,,,,Single-ply,SBD,M
Boys,99.79,DQ,Josh Uland,Duncanville,99.34,,,,,Single-ply,SBD,M
Boys,109.77,1,Austin Vela,Frisco Wakeland,105.41,294.84,190.51,235.87,721.21,Single-ply,SBD,M
Boys,124.74,2,Larry Moore Jr,Cedar Hill,110,222.26,149.69,265.35,637.3,Single-ply,SBD,M
Boys,109.77,3,Kris Calvert,Frisco,109.77,238.14,156.49,226.8,621.42,Single-ply,SBD,M
Boys,109.77,4,Robbie Murray,Lewisville The Colony,108.5,244.94,145.15,229.06,619.15,Single-ply,SBD,M
Boys,109.77,5,Gasteneau Fisher,Cedar Hill,107.23,244.94,131.54,235.87,612.35,Single-ply,SBD,M
Boys,109.77,6,Josh Allen,Cedar Hill,109.77,224.53,124.74,260.82,610.08,Single-ply,SBD,M
Boys,109.77,7,Andrew Allen,Frisco Liberty,102.33,229.06,129.27,238.14,596.47,Single-ply,SBD,M
Boys,124.74,8,Hunter Boyd,Lewisville The Colony,110,226.8,142.88,195.04,564.72,Single-ply,SBD,M
Boys,124.74,9,Sam Preston,Lewisville The Colony,110,226.8,131.54,192.78,551.11,Single-ply,SBD,M
Boys,109.77,10,Kyle Flowers,Frisco Wakeland,103.69,197.31,133.81,197.31,528.44,Single-ply,SBD,M
Boys,109.77,11,Jacoby Emery,Denison,109.77,188.24,113.4,208.65,510.29,Single-ply,SBD,M
Boys,109.77,12,Rob Bicker,Dallas Parish Episcopal,100.61,174.63,120.2,204.12,498.95,Single-ply,SBD,M
Boys,109.77,13,Torey Morrison,Duncanville,109.77,181.44,111.13,195.04,487.61,Single-ply,SBD,M
Boys,109.77,14,Drew Percle,Frisco Liberty,106.68,185.97,124.74,165.56,476.27,Single-ply,SBD,M
Boys,109.77,15,Daniel Kaufman,Frisco Liberty,109.77,188.24,124.74,145.15,458.13,Single-ply,SBD,M
Boys,109.77,16,Vinny Wurst,Bishop Lynch,109.77,188.24,90.72,174.63,453.59,Single-ply,SBD,M
Boys,109.77,17,Michael Sabeti,Coppell,109.77,151.95,113.4,172.37,437.72,Single-ply,SBD,M
Boys,109.77,18,Javier Padilla,Fort Worth Trimble Tech,103.96,163.29,111.13,158.76,433.18,Single-ply,SBD,M
Boys,109.77,19,Cody Kovach,Lewisville,109.77,174.63,99.79,158.76,433.18,Single-ply,SBD,M
Boys,124.74,DQ,Jonathan Potts,Lewisville The Colony,109.81,142.88,79.38,138.35,,Single-ply,SBD,M
Boys,109.77,DQ,John Mark Johnson,Dallas Parish Episcopal,108.23,249.48,,,,Single-ply,SBD,M
Boys,109.77,DQ,Max Milks,Sherman,109.77,,,,,Single-ply,SBD,M
Boys,124.74,1,Chase Appleby,Frisco Centennial,118.75,260.82,147.42,208.65,616.89,Single-ply,SBD,M
Boys,124.74,2,Nestor Hernandez,Dallas Parish Episcopal,114.85,249.48,124.74,235.87,610.08,Single-ply,SBD,M
Boys,124.74,3,Taylor Lasecki,Frisco,113.67,233.6,170.1,204.12,607.81,Single-ply,SBD,M
Boys,124.74,4,Connor Lambring,Frisco,119.48,238.14,158.76,204.12,601.01,Single-ply,SBD,M
Boys,124.74,5,Tai Nguyen,Frisco,120.29,242.67,145.15,197.31,585.13,Single-ply,SBD,M
Boys,124.74+,6,Buck Buchannon,Lewisville The Colony,124.96,226.8,122.47,226.8,576.06,Single-ply,SBD,M
Boys,124.74,7,Feyi Oyewole,Oakridge School,118.57,208.65,147.42,210.92,566.99,Single-ply,SBD,M
Boys,124.74,8,Jerome Daniels,Little Elm,123.2,217.72,142.88,204.12,564.72,Single-ply,SBD,M
Boys,124.74,9,Damarcus Henderson,Lewisville The Colony,120.7,231.33,102.06,215.46,548.85,Single-ply,SBD,M
Boys,124.74,10,Rodney Siders,Duncanville,121.2,222.26,120.2,188.24,530.7,Single-ply,SBD,M
Boys,124.74,11,Steve Rivera,Fort Worth Trimble Tech,122.38,192.78,120.2,215.46,528.44,Single-ply,SBD,M
Boys,124.74,12,Kyle Boren,Frisco,116.12,199.58,127.01,199.58,526.17,Single-ply,SBD,M
Boys,124.74,13,Oni Omoile,Coppell,118.02,192.78,117.93,199.58,510.29,Single-ply,SBD,M
Boys,124.74,14,Emilio Primera,Coppell,123.83,176.9,99.79,188.24,464.93,Single-ply,SBD,M
Boys,124.74,15,Cornelius Henderson,Duncanville,110.5,158.76,113.4,151.95,424.11,Single-ply,SBD,M
Boys,124.74,16,Mario Reyes,Fort Worth Trimble Tech,114.31,167.83,86.18,170.1,424.11,Single-ply,SBD,M
Boys,124.74,17,A. Hughes,Plano John Paul II,115.39,147.42,124.74,142.88,415.04,Single-ply,SBD,M
Boys,124.74,DQ,Daniel Kim,Lewisville The Colony,124.01,192.78,86.18,197.31,,Single-ply,SBD,M
Boys,124.74,DQ,Bijzon Brown,Lewisville The Colony,113.4,195.04,104.33,154.22,,Single-ply,SBD,M
Boys,124.74+,1,Josh Burkham,Lewisville The Colony,140.61,317.51,199.58,272.16,789.25,Single-ply,SBD,M
Boys,124.74+,2,DJ Willis,Lewisville The Colony,135.85,317.51,170.1,251.74,739.36,Single-ply,SBD,M
Boys,124.74+,3,Davidson Venancio,Frisco Liberty,131.36,322.05,170.1,238.14,730.28,Single-ply,SBD,M
Boys,124.74+,4,Quassi Magana,Little Elm,140.7,260.82,176.9,254.01,691.73,Single-ply,SBD,M
Boys,124.74+,5,Steven Jackson #2,Lewisville The Colony,132.99,272.16,147.42,267.62,687.19,Single-ply,SBD,M
Boys,124.74+,6,Jordan Jackson #3,Fort Worth Trimble Tech,129.73,235.87,142.88,226.8,605.55,Single-ply,SBD,M
Boys,124.74+,7,Hunter Clark,Frisco Liberty,132.18,215.46,151.95,188.24,555.65,Single-ply,SBD,M
Boys,124.74+,8,Genard Johnson,Waxahachie,135.99,199.58,113.4,208.65,521.63,Single-ply,SBD,M
Boys,124.74+,9,Jake Williams #3,Coppell,142.07,197.31,122.47,197.31,517.1,Single-ply,SBD,M
Boys,124.74+,10,Ryan Clark #8,Frisco Liberty,130.91,188.24,138.35,174.63,501.22,Single-ply,SBD,M
Boys,124.74+,11,Jeff Traywick,Coppell,128.73,142.88,102.06,147.42,392.36,Single-ply,SBD,M
Boys,124.74+,DQ,Zack Wellman,Lewisville The Colony,129.27,129.27,,,,Single-ply,SBD,M
